,FIPStxt,State,County_name
0,1001,AL,Autauga County
1,1003,AL,Baldwin County
2,1005,AL,Barbour County
3,1007,AL,Bibb County
4,1009,AL,Blount County
5,1011,AL,Bullock County
6,1013,AL,Butler County
7,1015,AL,Calhoun County
8,1017,AL,Chambers County
9,1019,AL,Cherokee County
10,1021,AL,Chilton County
11,1023,AL,Choctaw County
12,1025,AL,Clarke County
13,1027,AL,Clay County
14,1029,AL,Cleburne County
15,1031,AL,Coffee County
16,1033,AL,Colbert County
17,1035,AL,Conecuh County
18,1037,AL,Coosa County
19,1039,AL,Covington County
20,1041,AL,Crenshaw County
21,1043,AL,Cullman County
22,1045,AL,Dale County
23,1047,AL,Dallas County
24,1049,AL,DeKalb County
25,1051,AL,Elmore County
26,1053,AL,Escambia County
27,1055,AL,Etowah County
28,1057,AL,Fayette County
29,1059,AL,Franklin County
30,1061,AL,Geneva County
31,1063,AL,Greene County
32,1065,AL,Hale County
33,1067,AL,Henry County
34,1069,AL,Houston County
35,1071,AL,Jackson County
36,1073,AL,Jefferson County
37,1075,AL,Lamar County
38,1077,AL,Lauderdale County
39,1079,AL,Lawrence County
40,1081,AL,Lee County
41,1083,AL,Limestone County
42,1085,AL,Lowndes County
43,1087,AL,Macon County
44,1089,AL,Madison County
45,1091,AL,Marengo County
46,1093,AL,Marion County
47,1095,AL,Marshall County
48,1097,AL,Mobile County
49,1099,AL,Monroe County
50,1101,AL,Montgomery County
51,1103,AL,Morgan County
52,1105,AL,Perry County
53,1107,AL,Pickens County
54,1109,AL,Pike County
55,1111,AL,Randolph County
56,1113,AL,Russell County
57,1115,AL,St. Clair County
58,1117,AL,Shelby County
59,1119,AL,Sumter County
60,1121,AL,Talladega County
61,1123,AL,Tallapoosa County
62,1125,AL,Tuscaloosa County
63,1127,AL,Walker County
64,1129,AL,Washington County
65,1131,AL,Wilcox County
66,1133,AL,Winston County
67,2013,AK,Aleutians East Borough
68,2016,AK,Aleutians West Census Area
69,2020,AK,Anchorage Municipality
70,2050,AK,Bethel Census Area
71,2060,AK,Bristol Bay Borough
72,2068,AK,Denali Borough
73,2070,AK,Dillingham Census Area
74,2090,AK,Fairbanks North Star Borough
75,2100,AK,Haines Borough
76,2105,AK,"Hoonah-Angoon Census Area, AK"
77,2110,AK,Juneau City and Borough
78,2122,AK,Kenai Peninsula Borough
79,2130,AK,Ketchikan Gateway Borough
80,2150,AK,Kodiak Island Borough
81,2164,AK,Lake and Peninsula Borough
82,2170,AK,Matanuska-Susitna Borough
83,2180,AK,Nome Census Area
84,2185,AK,North Slope Borough
85,2188,AK,Northwest Arctic Borough
86,2195,AK,Petersburg Census area
87,2198,AK,Price of Wales Hyder Census Area
88,2220,AK,Sitka City and Borough
89,2230,AK,Skagway Municipality
90,2240,AK,Southeast Fairbanks Census Area
91,2261,AK,Valdez-Cordova Census Area
92,2270,AK,Wade Hampton Census Area
93,2275,AK,Wrangell City and Borough
94,2282,AK,Yakutat City and Borough
95,2290,AK,Yukon-Koyukuk Census Area
96,4001,AZ,Apache County
97,4003,AZ,Cochise County
98,4005,AZ,Coconino County
99,4007,AZ,Gila County
100,4009,AZ,Graham County
101,4011,AZ,Greenlee County
102,4012,AZ,La Paz County
103,4013,AZ,Maricopa County
104,4015,AZ,Mohave County
105,4017,AZ,Navajo County
106,4019,AZ,Pima County
107,4021,AZ,Pinal County
108,4023,AZ,Santa Cruz County
109,4025,AZ,Yavapai County
110,4027,AZ,Yuma County
111,5001,AR,Arkansas County
112,5003,AR,Ashley County
113,5005,AR,Baxter County
114,5007,AR,Benton County
115,5009,AR,Boone County
116,5011,AR,Bradley County
117,5013,AR,Calhoun County
118,5015,AR,Carroll County
119,5017,AR,Chicot County
120,5019,AR,Clark County
121,5021,AR,Clay County
122,5023,AR,Cleburne County
123,5025,AR,Cleveland County
124,5027,AR,Columbia County
125,5029,AR,Conway County
126,5031,AR,Craighead County
127,5033,AR,Crawford County
128,5035,AR,Crittenden County
129,5037,AR,Cross County
130,5039,AR,Dallas County
131,5041,AR,Desha County
132,5043,AR,Drew County
133,5045,AR,Faulkner County
134,5047,AR,Franklin County
135,5049,AR,Fulton County
136,5051,AR,Garland County
137,5053,AR,Grant County
138,5055,AR,Greene County
139,5057,AR,Hempstead County
140,5059,AR,Hot Spring County
141,5061,AR,Howard County
142,5063,AR,Independence County
143,5065,AR,Izard County
144,5067,AR,Jackson County
145,5069,AR,Jefferson County
146,5071,AR,Johnson County
147,5073,AR,Lafayette County
148,5075,AR,Lawrence County
149,5077,AR,Lee County
150,5079,AR,Lincoln County
151,5081,AR,Little River County
152,5083,AR,Logan County
153,5085,AR,Lonoke County
154,5087,AR,Madison County
155,5089,AR,Marion County
156,5091,AR,Miller County
157,5093,AR,Mississippi County
158,5095,AR,Monroe County
159,5097,AR,Montgomery County
160,5099,AR,Nevada County
161,5101,AR,Newton County
162,5103,AR,Ouachita County
163,5105,AR,Perry County
164,5107,AR,Phillips County
165,5109,AR,Pike County
166,5111,AR,Poinsett County
167,5113,AR,Polk County
168,5115,AR,Pope County
169,5117,AR,Prairie County
170,5119,AR,Pulaski County
171,5121,AR,Randolph County
172,5123,AR,St. Francis County
173,5125,AR,Saline County
174,5127,AR,Scott County
175,5129,AR,Searcy County
176,5131,AR,Sebastian County
177,5133,AR,Sevier County
178,5135,AR,Sharp County
179,5137,AR,Stone County
180,5139,AR,Union County
181,5141,AR,Van Buren County
182,5143,AR,Washington County
183,5145,AR,White County
184,5147,AR,Woodruff County
185,5149,AR,Yell County
186,6001,CA,Alameda County
187,6003,CA,Alpine County
188,6005,CA,Amador County
189,6007,CA,Butte County
190,6009,CA,Calaveras County
191,6011,CA,Colusa County
192,6013,CA,Contra Costa County
193,6015,CA,Del Norte County
194,6017,CA,El Dorado County
195,6019,CA,Fresno County
196,6021,CA,Glenn County
197,6023,CA,Humboldt County
198,6025,CA,Imperial County
199,6027,CA,Inyo County
200,6029,CA,Kern County
201,6031,CA,Kings County
202,6033,CA,Lake County
203,6035,CA,Lassen County
204,6037,CA,Los Angeles County
205,6039,CA,Madera County
206,6041,CA,Marin County
207,6043,CA,Mariposa County
208,6045,CA,Mendocino County
209,6047,CA,Merced County
210,6049,CA,Modoc County
211,6051,CA,Mono County
212,6053,CA,Monterey County
213,6055,CA,Napa County
214,6057,CA,Nevada County
215,6059,CA,Orange County
216,6061,CA,Placer County
217,6063,CA,Plumas County
218,6065,CA,Riverside County
219,6067,CA,Sacramento County
220,6069,CA,San Benito County
221,6071,CA,San Bernardino County
222,6073,CA,San Diego County
223,6075,CA,San Francisco County
224,6077,CA,San Joaquin County
225,6079,CA,San Luis Obispo County
226,6081,CA,San Mateo County
227,6083,CA,Santa Barbara County
228,6085,CA,Santa Clara County
229,6087,CA,Santa Cruz County
230,6089,CA,Shasta County
231,6091,CA,Sierra County
232,6093,CA,Siskiyou County
233,6095,CA,Solano County
234,6097,CA,Sonoma County
235,6099,CA,Stanislaus County
236,6101,CA,Sutter County
237,6103,CA,Tehama County
238,6105,CA,Trinity County
239,6107,CA,Tulare County
240,6109,CA,Tuolumne County
241,6111,CA,Ventura County
242,6113,CA,Yolo County
243,6115,CA,Yuba County
244,8001,CO,Adams County
245,8003,CO,Alamosa County
246,8005,CO,Arapahoe County
247,8007,CO,Archuleta County
248,8009,CO,Baca County
249,8011,CO,Bent County
250,8013,CO,Boulder County
251,8014,CO,Broomfield County
252,8015,CO,Chaffee County
253,8017,CO,Cheyenne County
254,8019,CO,Clear Creek County
255,8021,CO,Conejos County
256,8023,CO,Costilla County
257,8025,CO,Crowley County
258,8027,CO,Custer County
259,8029,CO,Delta County
260,8031,CO,Denver County
261,8033,CO,Dolores County
262,8035,CO,Douglas County
263,8037,CO,Eagle County
264,8039,CO,Elbert County
265,8041,CO,El Paso County
266,8043,CO,Fremont County
267,8045,CO,Garfield County
268,8047,CO,Gilpin County
269,8049,CO,Grand County
270,8051,CO,Gunnison County
271,8053,CO,Hinsdale County
272,8055,CO,Huerfano County
273,8057,CO,Jackson County
274,8059,CO,Jefferson County
275,8061,CO,Kiowa County
276,8063,CO,Kit Carson County
277,8065,CO,Lake County
278,8067,CO,La Plata County
279,8069,CO,Larimer County
280,8071,CO,Las Animas County
281,8073,CO,Lincoln County
282,8075,CO,Logan County
283,8077,CO,Mesa County
284,8079,CO,Mineral County
285,8081,CO,Moffat County
286,8083,CO,Montezuma County
287,8085,CO,Montrose County
288,8087,CO,Morgan County
289,8089,CO,Otero County
290,8091,CO,Ouray County
291,8093,CO,Park County
292,8095,CO,Phillips County
293,8097,CO,Pitkin County
294,8099,CO,Prowers County
295,8101,CO,Pueblo County
296,8103,CO,Rio Blanco County
297,8105,CO,Rio Grande County
298,8107,CO,Routt County
299,8109,CO,Saguache County
300,8111,CO,San Juan County
301,8113,CO,San Miguel County
302,8115,CO,Sedgwick County
303,8117,CO,Summit County
304,8119,CO,Teller County
305,8121,CO,Washington County
306,8123,CO,Weld County
307,8125,CO,Yuma County
308,9001,CT,Fairfield County
309,9003,CT,Hartford County
310,9005,CT,Litchfield County
311,9007,CT,Middlesex County
312,9009,CT,New Haven County
313,9011,CT,New London County
314,9013,CT,Tolland County
315,9015,CT,Windham County
316,10001,DE,Kent County
317,10003,DE,New Castle County
318,10005,DE,Sussex County
319,11001,DC,District of Columbia
320,12001,FL,Alachua County
321,12003,FL,Baker County
322,12005,FL,Bay County
323,12007,FL,Bradford County
324,12009,FL,Brevard County
325,12011,FL,Broward County
326,12013,FL,Calhoun County
327,12015,FL,Charlotte County
328,12017,FL,Citrus County
329,12019,FL,Clay County
330,12021,FL,Collier County
331,12023,FL,Columbia County
332,12027,FL,DeSoto County
333,12029,FL,Dixie County
334,12031,FL,Duval County
335,12033,FL,Escambia County
336,12035,FL,Flagler County
337,12037,FL,Franklin County
338,12039,FL,Gadsden County
339,12041,FL,Gilchrist County
340,12043,FL,Glades County
341,12045,FL,Gulf County
342,12047,FL,Hamilton County
343,12049,FL,Hardee County
344,12051,FL,Hendry County
345,12053,FL,Hernando County
346,12055,FL,Highlands County
347,12057,FL,Hillsborough County
348,12059,FL,Holmes County
349,12061,FL,Indian River County
350,12063,FL,Jackson County
351,12065,FL,Jefferson County
352,12067,FL,Lafayette County
353,12069,FL,Lake County
354,12071,FL,Lee County
355,12073,FL,Leon County
356,12075,FL,Levy County
357,12077,FL,Liberty County
358,12079,FL,Madison County
359,12081,FL,Manatee County
360,12083,FL,Marion County
361,12085,FL,Martin County
362,12086,FL,Miami-Dade County
363,12087,FL,Monroe County
364,12089,FL,Nassau County
365,12091,FL,Okaloosa County
366,12093,FL,Okeechobee County
367,12095,FL,Orange County
368,12097,FL,Osceola County
369,12099,FL,Palm Beach County
370,12101,FL,Pasco County
371,12103,FL,Pinellas County
372,12105,FL,Polk County
373,12107,FL,Putnam County
374,12109,FL,St. Johns County
375,12111,FL,St. Lucie County
376,12113,FL,Santa Rosa County
377,12115,FL,Sarasota County
378,12117,FL,Seminole County
379,12119,FL,Sumter County
380,12121,FL,Suwannee County
381,12123,FL,Taylor County
382,12125,FL,Union County
383,12127,FL,Volusia County
384,12129,FL,Wakulla County
385,12131,FL,Walton County
386,12133,FL,Washington County
387,13001,GA,Appling County
388,13003,GA,Atkinson County
389,13005,GA,Bacon County
390,13007,GA,Baker County
391,13009,GA,Baldwin County
392,13011,GA,Banks County
393,13013,GA,Barrow County
394,13015,GA,Bartow County
395,13017,GA,Ben Hill County
396,13019,GA,Berrien County
397,13021,GA,Bibb County
398,13023,GA,Bleckley County
399,13025,GA,Brantley County
400,13027,GA,Brooks County
401,13029,GA,Bryan County
402,13031,GA,Bulloch County
403,13033,GA,Burke County
404,13035,GA,Butts County
405,13037,GA,Calhoun County
406,13039,GA,Camden County
407,13043,GA,Candler County
408,13045,GA,Carroll County
409,13047,GA,Catoosa County
410,13049,GA,Charlton County
411,13051,GA,Chatham County
412,13053,GA,Chattahoochee County
413,13055,GA,Chattooga County
414,13057,GA,Cherokee County
415,13059,GA,Clarke County
416,13061,GA,Clay County
417,13063,GA,Clayton County
418,13065,GA,Clinch County
419,13067,GA,Cobb County
420,13069,GA,Coffee County
421,13071,GA,Colquitt County
422,13073,GA,Columbia County
423,13075,GA,Cook County
424,13077,GA,Coweta County
425,13079,GA,Crawford County
426,13081,GA,Crisp County
427,13083,GA,Dade County
428,13085,GA,Dawson County
429,13087,GA,Decatur County
430,13089,GA,DeKalb County
431,13091,GA,Dodge County
432,13093,GA,Dooly County
433,13095,GA,Dougherty County
434,13097,GA,Douglas County
435,13099,GA,Early County
436,13101,GA,Echols County
437,13103,GA,Effingham County
438,13105,GA,Elbert County
439,13107,GA,Emanuel County
440,13109,GA,Evans County
441,13111,GA,Fannin County
442,13113,GA,Fayette County
443,13115,GA,Floyd County
444,13117,GA,Forsyth County
445,13119,GA,Franklin County
446,13121,GA,Fulton County
447,13123,GA,Gilmer County
448,13125,GA,Glascock County
449,13127,GA,Glynn County
450,13129,GA,Gordon County
451,13131,GA,Grady County
452,13133,GA,Greene County
453,13135,GA,Gwinnett County
454,13137,GA,Habersham County
455,13139,GA,Hall County
456,13141,GA,Hancock County
457,13143,GA,Haralson County
458,13145,GA,Harris County
459,13147,GA,Hart County
460,13149,GA,Heard County
461,13151,GA,Henry County
462,13153,GA,Houston County
463,13155,GA,Irwin County
464,13157,GA,Jackson County
465,13159,GA,Jasper County
466,13161,GA,Jeff Davis County
467,13163,GA,Jefferson County
468,13165,GA,Jenkins County
469,13167,GA,Johnson County
470,13169,GA,Jones County
471,13171,GA,Lamar County
472,13173,GA,Lanier County
473,13175,GA,Laurens County
474,13177,GA,Lee County
475,13179,GA,Liberty County
476,13181,GA,Lincoln County
477,13183,GA,Long County
478,13185,GA,Lowndes County
479,13187,GA,Lumpkin County
480,13189,GA,McDuffie County
481,13191,GA,McIntosh County
482,13193,GA,Macon County
483,13195,GA,Madison County
484,13197,GA,Marion County
485,13199,GA,Meriwether County
486,13201,GA,Miller County
487,13205,GA,Mitchell County
488,13207,GA,Monroe County
489,13209,GA,Montgomery County
490,13211,GA,Morgan County
491,13213,GA,Murray County
492,13215,GA,Muscogee County
493,13217,GA,Newton County
494,13219,GA,Oconee County
495,13221,GA,Oglethorpe County
496,13223,GA,Paulding County
497,13225,GA,Peach County
498,13227,GA,Pickens County
499,13229,GA,Pierce County
500,13231,GA,Pike County
501,13233,GA,Polk County
502,13235,GA,Pulaski County
503,13237,GA,Putnam County
504,13239,GA,Quitman County
505,13241,GA,Rabun County
506,13243,GA,Randolph County
507,13245,GA,Richmond County
508,13247,GA,Rockdale County
509,13249,GA,Schley County
510,13251,GA,Screven County
511,13253,GA,Seminole County
512,13255,GA,Spalding County
513,13257,GA,Stephens County
514,13259,GA,Stewart County
515,13261,GA,Sumter County
516,13263,GA,Talbot County
517,13265,GA,Taliaferro County
518,13267,GA,Tattnall County
519,13269,GA,Taylor County
520,13271,GA,Telfair County
521,13273,GA,Terrell County
522,13275,GA,Thomas County
523,13277,GA,Tift County
524,13279,GA,Toombs County
525,13281,GA,Towns County
526,13283,GA,Treutlen County
527,13285,GA,Troup County
528,13287,GA,Turner County
529,13289,GA,Twiggs County
530,13291,GA,Union County
531,13293,GA,Upson County
532,13295,GA,Walker County
533,13297,GA,Walton County
534,13299,GA,Ware County
535,13301,GA,Warren County
536,13303,GA,Washington County
537,13305,GA,Wayne County
538,13307,GA,Webster County
539,13309,GA,Wheeler County
540,13311,GA,White County
541,13313,GA,Whitfield County
542,13315,GA,Wilcox County
543,13317,GA,Wilkes County
544,13319,GA,Wilkinson County
545,13321,GA,Worth County
546,15001,HI,Hawaii County
547,15003,HI,Honolulu County
548,15005,HI,Kalawao County
549,15007,HI,Kauai County
550,15009,HI,Maui County
551,16001,ID,Ada County
552,16003,ID,Adams County
553,16005,ID,Bannock County
554,16007,ID,Bear Lake County
555,16009,ID,Benewah County
556,16011,ID,Bingham County
557,16013,ID,Blaine County
558,16015,ID,Boise County
559,16017,ID,Bonner County
560,16019,ID,Bonneville County
561,16021,ID,Boundary County
562,16023,ID,Butte County
563,16025,ID,Camas County
564,16027,ID,Canyon County
565,16029,ID,Caribou County
566,16031,ID,Cassia County
567,16033,ID,Clark County
568,16035,ID,Clearwater County
569,16037,ID,Custer County
570,16039,ID,Elmore County
571,16041,ID,Franklin County
572,16043,ID,Fremont County
573,16045,ID,Gem County
574,16047,ID,Gooding County
575,16049,ID,Idaho County
576,16051,ID,Jefferson County
577,16053,ID,Jerome County
578,16055,ID,Kootenai County
579,16057,ID,Latah County
580,16059,ID,Lemhi County
581,16061,ID,Lewis County
582,16063,ID,Lincoln County
583,16065,ID,Madison County
584,16067,ID,Minidoka County
585,16069,ID,Nez Perce County
586,16071,ID,Oneida County
587,16073,ID,Owyhee County
588,16075,ID,Payette County
589,16077,ID,Power County
590,16079,ID,Shoshone County
591,16081,ID,Teton County
592,16083,ID,Twin Falls County
593,16085,ID,Valley County
594,16087,ID,Washington County
595,17001,IL,Adams County
596,17003,IL,Alexander County
597,17005,IL,Bond County
598,17007,IL,Boone County
599,17009,IL,Brown County
600,17011,IL,Bureau County
601,17013,IL,Calhoun County
602,17015,IL,Carroll County
603,17017,IL,Cass County
604,17019,IL,Champaign County
605,17021,IL,Christian County
606,17023,IL,Clark County
607,17025,IL,Clay County
608,17027,IL,Clinton County
609,17029,IL,Coles County
610,17031,IL,Cook County
611,17033,IL,Crawford County
612,17035,IL,Cumberland County
613,17037,IL,DeKalb County
614,17039,IL,De Witt County
615,17041,IL,Douglas County
616,17043,IL,DuPage County
617,17045,IL,Edgar County
618,17047,IL,Edwards County
619,17049,IL,Effingham County
620,17051,IL,Fayette County
621,17053,IL,Ford County
622,17055,IL,Franklin County
623,17057,IL,Fulton County
624,17059,IL,Gallatin County
625,17061,IL,Greene County
626,17063,IL,Grundy County
627,17065,IL,Hamilton County
628,17067,IL,Hancock County
629,17069,IL,Hardin County
630,17071,IL,Henderson County
631,17073,IL,Henry County
632,17075,IL,Iroquois County
633,17077,IL,Jackson County
634,17079,IL,Jasper County
635,17081,IL,Jefferson County
636,17083,IL,Jersey County
637,17085,IL,Jo Daviess County
638,17087,IL,Johnson County
639,17089,IL,Kane County
640,17091,IL,Kankakee County
641,17093,IL,Kendall County
642,17095,IL,Knox County
643,17097,IL,Lake County
644,17099,IL,La Salle County
645,17101,IL,Lawrence County
646,17103,IL,Lee County
647,17105,IL,Livingston County
648,17107,IL,Logan County
649,17109,IL,McDonough County
650,17111,IL,McHenry County
651,17113,IL,McLean County
652,17115,IL,Macon County
653,17117,IL,Macoupin County
654,17119,IL,Madison County
655,17121,IL,Marion County
656,17123,IL,Marshall County
657,17125,IL,Mason County
658,17127,IL,Massac County
659,17129,IL,Menard County
660,17131,IL,Mercer County
661,17133,IL,Monroe County
662,17135,IL,Montgomery County
663,17137,IL,Morgan County
664,17139,IL,Moultrie County
665,17141,IL,Ogle County
666,17143,IL,Peoria County
667,17145,IL,Perry County
668,17147,IL,Piatt County
669,17149,IL,Pike County
670,17151,IL,Pope County
671,17153,IL,Pulaski County
672,17155,IL,Putnam County
673,17157,IL,Randolph County
674,17159,IL,Richland County
675,17161,IL,Rock Island County
676,17163,IL,St. Clair County
677,17165,IL,Saline County
678,17167,IL,Sangamon County
679,17169,IL,Schuyler County
680,17171,IL,Scott County
681,17173,IL,Shelby County
682,17175,IL,Stark County
683,17177,IL,Stephenson County
684,17179,IL,Tazewell County
685,17181,IL,Union County
686,17183,IL,Vermilion County
687,17185,IL,Wabash County
688,17187,IL,Warren County
689,17189,IL,Washington County
690,17191,IL,Wayne County
691,17193,IL,White County
692,17195,IL,Whiteside County
693,17197,IL,Will County
694,17199,IL,Williamson County
695,17201,IL,Winnebago County
696,17203,IL,Woodford County
697,18001,IN,Adams County
698,18003,IN,Allen County
699,18005,IN,Bartholomew County
700,18007,IN,Benton County
701,18009,IN,Blackford County
702,18011,IN,Boone County
703,18013,IN,Brown County
704,18015,IN,Carroll County
705,18017,IN,Cass County
706,18019,IN,Clark County
707,18021,IN,Clay County
708,18023,IN,Clinton County
709,18025,IN,Crawford County
710,18027,IN,Daviess County
711,18029,IN,Dearborn County
712,18031,IN,Decatur County
713,18033,IN,DeKalb County
714,18035,IN,Delaware County
715,18037,IN,Dubois County
716,18039,IN,Elkhart County
717,18041,IN,Fayette County
718,18043,IN,Floyd County
719,18045,IN,Fountain County
720,18047,IN,Franklin County
721,18049,IN,Fulton County
722,18051,IN,Gibson County
723,18053,IN,Grant County
724,18055,IN,Greene County
725,18057,IN,Hamilton County
726,18059,IN,Hancock County
727,18061,IN,Harrison County
728,18063,IN,Hendricks County
729,18065,IN,Henry County
730,18067,IN,Howard County
731,18069,IN,Huntington County
732,18071,IN,Jackson County
733,18073,IN,Jasper County
734,18075,IN,Jay County
735,18077,IN,Jefferson County
736,18079,IN,Jennings County
737,18081,IN,Johnson County
738,18083,IN,Knox County
739,18085,IN,Kosciusko County
740,18087,IN,LaGrange County
741,18089,IN,Lake County
742,18091,IN,LaPorte County
743,18093,IN,Lawrence County
744,18095,IN,Madison County
745,18097,IN,Marion County
746,18099,IN,Marshall County
747,18101,IN,Martin County
748,18103,IN,Miami County
749,18105,IN,Monroe County
750,18107,IN,Montgomery County
751,18109,IN,Morgan County
752,18111,IN,Newton County
753,18113,IN,Noble County
754,18115,IN,Ohio County
755,18117,IN,Orange County
756,18119,IN,Owen County
757,18121,IN,Parke County
758,18123,IN,Perry County
759,18125,IN,Pike County
760,18127,IN,Porter County
761,18129,IN,Posey County
762,18131,IN,Pulaski County
763,18133,IN,Putnam County
764,18135,IN,Randolph County
765,18137,IN,Ripley County
766,18139,IN,Rush County
767,18141,IN,St. Joseph County
768,18143,IN,Scott County
769,18145,IN,Shelby County
770,18147,IN,Spencer County
771,18149,IN,Starke County
772,18151,IN,Steuben County
773,18153,IN,Sullivan County
774,18155,IN,Switzerland County
775,18157,IN,Tippecanoe County
776,18159,IN,Tipton County
777,18161,IN,Union County
778,18163,IN,Vanderburgh County
779,18165,IN,Vermillion County
780,18167,IN,Vigo County
781,18169,IN,Wabash County
782,18171,IN,Warren County
783,18173,IN,Warrick County
784,18175,IN,Washington County
785,18177,IN,Wayne County
786,18179,IN,Wells County
787,18181,IN,White County
788,18183,IN,Whitley County
789,19001,IA,Adair County
790,19003,IA,Adams County
791,19005,IA,Allamakee County
792,19007,IA,Appanoose County
793,19009,IA,Audubon County
794,19011,IA,Benton County
795,19013,IA,Black Hawk County
796,19015,IA,Boone County
797,19017,IA,Bremer County
798,19019,IA,Buchanan County
799,19021,IA,Buena Vista County
800,19023,IA,Butler County
801,19025,IA,Calhoun County
802,19027,IA,Carroll County
803,19029,IA,Cass County
804,19031,IA,Cedar County
805,19033,IA,Cerro Gordo County
806,19035,IA,Cherokee County
807,19037,IA,Chickasaw County
808,19039,IA,Clarke County
809,19041,IA,Clay County
810,19043,IA,Clayton County
811,19045,IA,Clinton County
812,19047,IA,Crawford County
813,19049,IA,Dallas County
814,19051,IA,Davis County
815,19053,IA,Decatur County
816,19055,IA,Delaware County
817,19057,IA,Des Moines County
818,19059,IA,Dickinson County
819,19061,IA,Dubuque County
820,19063,IA,Emmet County
821,19065,IA,Fayette County
822,19067,IA,Floyd County
823,19069,IA,Franklin County
824,19071,IA,Fremont County
825,19073,IA,Greene County
826,19075,IA,Grundy County
827,19077,IA,Guthrie County
828,19079,IA,Hamilton County
829,19081,IA,Hancock County
830,19083,IA,Hardin County
831,19085,IA,Harrison County
832,19087,IA,Henry County
833,19089,IA,Howard County
834,19091,IA,Humboldt County
835,19093,IA,Ida County
836,19095,IA,Iowa County
837,19097,IA,Jackson County
838,19099,IA,Jasper County
839,19101,IA,Jefferson County
840,19103,IA,Johnson County
841,19105,IA,Jones County
842,19107,IA,Keokuk County
843,19109,IA,Kossuth County
844,19111,IA,Lee County
845,19113,IA,Linn County
846,19115,IA,Louisa County
847,19117,IA,Lucas County
848,19119,IA,Lyon County
849,19121,IA,Madison County
850,19123,IA,Mahaska County
851,19125,IA,Marion County
852,19127,IA,Marshall County
853,19129,IA,Mills County
854,19131,IA,Mitchell County
855,19133,IA,Monona County
856,19135,IA,Monroe County
857,19137,IA,Montgomery County
858,19139,IA,Muscatine County
859,19141,IA,O'Brien County
860,19143,IA,Osceola County
861,19145,IA,Page County
862,19147,IA,Palo Alto County
863,19149,IA,Plymouth County
864,19151,IA,Pocahontas County
865,19153,IA,Polk County
866,19155,IA,Pottawattamie County
867,19157,IA,Poweshiek County
868,19159,IA,Ringgold County
869,19161,IA,Sac County
870,19163,IA,Scott County
871,19165,IA,Shelby County
872,19167,IA,Sioux County
873,19169,IA,Story County
874,19171,IA,Tama County
875,19173,IA,Taylor County
876,19175,IA,Union County
877,19177,IA,Van Buren County
878,19179,IA,Wapello County
879,19181,IA,Warren County
880,19183,IA,Washington County
881,19185,IA,Wayne County
882,19187,IA,Webster County
883,19189,IA,Winnebago County
884,19191,IA,Winneshiek County
885,19193,IA,Woodbury County
886,19195,IA,Worth County
887,19197,IA,Wright County
888,20001,KS,Allen County
889,20003,KS,Anderson County
890,20005,KS,Atchison County
891,20007,KS,Barber County
892,20009,KS,Barton County
893,20011,KS,Bourbon County
894,20013,KS,Brown County
895,20015,KS,Butler County
896,20017,KS,Chase County
897,20019,KS,Chautauqua County
898,20021,KS,Cherokee County
899,20023,KS,Cheyenne County
900,20025,KS,Clark County
901,20027,KS,Clay County
902,20029,KS,Cloud County
903,20031,KS,Coffey County
904,20033,KS,Comanche County
905,20035,KS,Cowley County
906,20037,KS,Crawford County
907,20039,KS,Decatur County
908,20041,KS,Dickinson County
909,20043,KS,Doniphan County
910,20045,KS,Douglas County
911,20047,KS,Edwards County
912,20049,KS,Elk County
913,20051,KS,Ellis County
914,20053,KS,Ellsworth County
915,20055,KS,Finney County
916,20057,KS,Ford County
917,20059,KS,Franklin County
918,20061,KS,Geary County
919,20063,KS,Gove County
920,20065,KS,Graham County
921,20067,KS,Grant County
922,20069,KS,Gray County
923,20071,KS,Greeley County
924,20073,KS,Greenwood County
925,20075,KS,Hamilton County
926,20077,KS,Harper County
927,20079,KS,Harvey County
928,20081,KS,Haskell County
929,20083,KS,Hodgeman County
930,20085,KS,Jackson County
931,20087,KS,Jefferson County
932,20089,KS,Jewell County
933,20091,KS,Johnson County
934,20093,KS,Kearny County
935,20095,KS,Kingman County
936,20097,KS,Kiowa County
937,20099,KS,Labette County
938,20101,KS,Lane County
939,20103,KS,Leavenworth County
940,20105,KS,Lincoln County
941,20107,KS,Linn County
942,20109,KS,Logan County
943,20111,KS,Lyon County
944,20113,KS,McPherson County
945,20115,KS,Marion County
946,20117,KS,Marshall County
947,20119,KS,Meade County
948,20121,KS,Miami County
949,20123,KS,Mitchell County
950,20125,KS,Montgomery County
951,20127,KS,Morris County
952,20129,KS,Morton County
953,20131,KS,Nemaha County
954,20133,KS,Neosho County
955,20135,KS,Ness County
956,20137,KS,Norton County
957,20139,KS,Osage County
958,20141,KS,Osborne County
959,20143,KS,Ottawa County
960,20145,KS,Pawnee County
961,20147,KS,Phillips County
962,20149,KS,Pottawatomie County
963,20151,KS,Pratt County
964,20153,KS,Rawlins County
965,20155,KS,Reno County
966,20157,KS,Republic County
967,20159,KS,Rice County
968,20161,KS,Riley County
969,20163,KS,Rooks County
970,20165,KS,Rush County
971,20167,KS,Russell County
972,20169,KS,Saline County
973,20171,KS,Scott County
974,20173,KS,Sedgwick County
975,20175,KS,Seward County
976,20177,KS,Shawnee County
977,20179,KS,Sheridan County
978,20181,KS,Sherman County
979,20183,KS,Smith County
980,20185,KS,Stafford County
981,20187,KS,Stanton County
982,20189,KS,Stevens County
983,20191,KS,Sumner County
984,20193,KS,Thomas County
985,20195,KS,Trego County
986,20197,KS,Wabaunsee County
987,20199,KS,Wallace County
988,20201,KS,Washington County
989,20203,KS,Wichita County
990,20205,KS,Wilson County
991,20207,KS,Woodson County
992,20209,KS,Wyandotte County
993,21001,KY,Adair County
994,21003,KY,Allen County
995,21005,KY,Anderson County
996,21007,KY,Ballard County
997,21009,KY,Barren County
998,21011,KY,Bath County
999,21013,KY,Bell County
1000,21015,KY,Boone County
1001,21017,KY,Bourbon County
1002,21019,KY,Boyd County
1003,21021,KY,Boyle County
1004,21023,KY,Bracken County
1005,21025,KY,Breathitt County
1006,21027,KY,Breckinridge County
1007,21029,KY,Bullitt County
1008,21031,KY,Butler County
1009,21033,KY,Caldwell County
1010,21035,KY,Calloway County
1011,21037,KY,Campbell County
1012,21039,KY,Carlisle County
1013,21041,KY,Carroll County
1014,21043,KY,Carter County
1015,21045,KY,Casey County
1016,21047,KY,Christian County
1017,21049,KY,Clark County
1018,21051,KY,Clay County
1019,21053,KY,Clinton County
1020,21055,KY,Crittenden County
1021,21057,KY,Cumberland County
1022,21059,KY,Daviess County
1023,21061,KY,Edmonson County
1024,21063,KY,Elliott County
1025,21065,KY,Estill County
1026,21067,KY,Fayette County
1027,21069,KY,Fleming County
1028,21071,KY,Floyd County
1029,21073,KY,Franklin County
1030,21075,KY,Fulton County
1031,21077,KY,Gallatin County
1032,21079,KY,Garrard County
1033,21081,KY,Grant County
1034,21083,KY,Graves County
1035,21085,KY,Grayson County
1036,21087,KY,Green County
1037,21089,KY,Greenup County
1038,21091,KY,Hancock County
1039,21093,KY,Hardin County
1040,21095,KY,Harlan County
1041,21097,KY,Harrison County
1042,21099,KY,Hart County
1043,21101,KY,Henderson County
1044,21103,KY,Henry County
1045,21105,KY,Hickman County
1046,21107,KY,Hopkins County
1047,21109,KY,Jackson County
1048,21111,KY,Jefferson County
1049,21113,KY,Jessamine County
1050,21115,KY,Johnson County
1051,21117,KY,Kenton County
1052,21119,KY,Knott County
1053,21121,KY,Knox County
1054,21123,KY,Larue County
1055,21125,KY,Laurel County
1056,21127,KY,Lawrence County
1057,21129,KY,Lee County
1058,21131,KY,Leslie County
1059,21133,KY,Letcher County
1060,21135,KY,Lewis County
1061,21137,KY,Lincoln County
1062,21139,KY,Livingston County
1063,21141,KY,Logan County
1064,21143,KY,Lyon County
1065,21145,KY,McCracken County
1066,21147,KY,McCreary County
1067,21149,KY,McLean County
1068,21151,KY,Madison County
1069,21153,KY,Magoffin County
1070,21155,KY,Marion County
1071,21157,KY,Marshall County
1072,21159,KY,Martin County
1073,21161,KY,Mason County
1074,21163,KY,Meade County
1075,21165,KY,Menifee County
1076,21167,KY,Mercer County
1077,21169,KY,Metcalfe County
1078,21171,KY,Monroe County
1079,21173,KY,Montgomery County
1080,21175,KY,Morgan County
1081,21177,KY,Muhlenberg County
1082,21179,KY,Nelson County
1083,21181,KY,Nicholas County
1084,21183,KY,Ohio County
1085,21185,KY,Oldham County
1086,21187,KY,Owen County
1087,21189,KY,Owsley County
1088,21191,KY,Pendleton County
1089,21193,KY,Perry County
1090,21195,KY,Pike County
1091,21197,KY,Powell County
1092,21199,KY,Pulaski County
1093,21201,KY,Robertson County
1094,21203,KY,Rockcastle County
1095,21205,KY,Rowan County
1096,21207,KY,Russell County
1097,21209,KY,Scott County
1098,21211,KY,Shelby County
1099,21213,KY,Simpson County
1100,21215,KY,Spencer County
1101,21217,KY,Taylor County
1102,21219,KY,Todd County
1103,21221,KY,Trigg County
1104,21223,KY,Trimble County
1105,21225,KY,Union County
1106,21227,KY,Warren County
1107,21229,KY,Washington County
1108,21231,KY,Wayne County
1109,21233,KY,Webster County
1110,21235,KY,Whitley County
1111,21237,KY,Wolfe County
1112,21239,KY,Woodford County
1113,22001,LA,Acadia Parish
1114,22003,LA,Allen Parish
1115,22005,LA,Ascension Parish
1116,22007,LA,Assumption Parish
1117,22009,LA,Avoyelles Parish
1118,22011,LA,Beauregard Parish
1119,22013,LA,Bienville Parish
1120,22015,LA,Bossier Parish
1121,22017,LA,Caddo Parish
1122,22019,LA,Calcasieu Parish
1123,22021,LA,Caldwell Parish
1124,22023,LA,Cameron Parish
1125,22025,LA,Catahoula Parish
1126,22027,LA,Claiborne Parish
1127,22029,LA,Concordia Parish
1128,22031,LA,De Soto Parish
1129,22033,LA,East Baton Rouge Parish
1130,22035,LA,East Carroll Parish
1131,22037,LA,East Feliciana Parish
1132,22039,LA,Evangeline Parish
1133,22041,LA,Franklin Parish
1134,22043,LA,Grant Parish
1135,22045,LA,Iberia Parish
1136,22047,LA,Iberville Parish
1137,22049,LA,Jackson Parish
1138,22051,LA,Jefferson Parish
1139,22053,LA,Jefferson Davis Parish
1140,22055,LA,Lafayette Parish
1141,22057,LA,Lafourche Parish
1142,22059,LA,La Salle Parish
1143,22061,LA,Lincoln Parish
1144,22063,LA,Livingston Parish
1145,22065,LA,Madison Parish
1146,22067,LA,Morehouse Parish
1147,22069,LA,Natchitoches Parish
1148,22071,LA,Orleans Parish
1149,22073,LA,Ouachita Parish
1150,22075,LA,Plaquemines Parish
1151,22077,LA,Pointe Coupee Parish
1152,22079,LA,Rapides Parish
1153,22081,LA,Red River Parish
1154,22083,LA,Richland Parish
1155,22085,LA,Sabine Parish
1156,22087,LA,St. Bernard Parish
1157,22089,LA,St. Charles Parish
1158,22091,LA,St. Helena Parish
1159,22093,LA,St. James Parish
1160,22095,LA,St. John the Baptist Parish
1161,22097,LA,St. Landry Parish
1162,22099,LA,St. Martin Parish
1163,22101,LA,St. Mary Parish
1164,22103,LA,St. Tammany Parish
1165,22105,LA,Tangipahoa Parish
1166,22107,LA,Tensas Parish
1167,22109,LA,Terrebonne Parish
1168,22111,LA,Union Parish
1169,22113,LA,Vermilion Parish
1170,22115,LA,Vernon Parish
1171,22117,LA,Washington Parish
1172,22119,LA,Webster Parish
1173,22121,LA,West Baton Rouge Parish
1174,22123,LA,West Carroll Parish
1175,22125,LA,West Feliciana Parish
1176,22127,LA,Winn Parish
1177,23001,ME,Androscoggin County
1178,23003,ME,Aroostook County
1179,23005,ME,Cumberland County
1180,23007,ME,Franklin County
1181,23009,ME,Hancock County
1182,23011,ME,Kennebec County
1183,23013,ME,Knox County
1184,23015,ME,Lincoln County
1185,23017,ME,Oxford County
1186,23019,ME,Penobscot County
1187,23021,ME,Piscataquis County
1188,23023,ME,Sagadahoc County
1189,23025,ME,Somerset County
1190,23027,ME,Waldo County
1191,23029,ME,Washington County
1192,23031,ME,York County
1193,24001,MD,Allegany County
1194,24003,MD,Anne Arundel County
1195,24005,MD,Baltimore County
1196,24009,MD,Calvert County
1197,24011,MD,Caroline County
1198,24013,MD,Carroll County
1199,24015,MD,Cecil County
1200,24017,MD,Charles County
1201,24019,MD,Dorchester County
1202,24021,MD,Frederick County
1203,24023,MD,Garrett County
1204,24025,MD,Harford County
1205,24027,MD,Howard County
1206,24029,MD,Kent County
1207,24031,MD,Montgomery County
1208,24033,MD,Prince George's County
1209,24035,MD,Queen Anne's County
1210,24037,MD,St. Mary's County
1211,24039,MD,Somerset County
1212,24041,MD,Talbot County
1213,24043,MD,Washington County
1214,24045,MD,Wicomico County
1215,24047,MD,Worcester County
1216,24510,MD,Baltimore city
1217,25001,MA,Barnstable County
1218,25003,MA,Berkshire County
1219,25005,MA,Bristol County
1220,25007,MA,Dukes County
1221,25009,MA,Essex County
1222,25011,MA,Franklin County
1223,25013,MA,Hampden County
1224,25015,MA,Hampshire County
1225,25017,MA,Middlesex County
1226,25019,MA,Nantucket County
1227,25021,MA,Norfolk County
1228,25023,MA,Plymouth County
1229,25025,MA,Suffolk County
1230,25027,MA,Worcester County
1231,26001,MI,Alcona County
1232,26003,MI,Alger County
1233,26005,MI,Allegan County
1234,26007,MI,Alpena County
1235,26009,MI,Antrim County
1236,26011,MI,Arenac County
1237,26013,MI,Baraga County
1238,26015,MI,Barry County
1239,26017,MI,Bay County
1240,26019,MI,Benzie County
1241,26021,MI,Berrien County
1242,26023,MI,Branch County
1243,26025,MI,Calhoun County
1244,26027,MI,Cass County
1245,26029,MI,Charlevoix County
1246,26031,MI,Cheboygan County
1247,26033,MI,Chippewa County
1248,26035,MI,Clare County
1249,26037,MI,Clinton County
1250,26039,MI,Crawford County
1251,26041,MI,Delta County
1252,26043,MI,Dickinson County
1253,26045,MI,Eaton County
1254,26047,MI,Emmet County
1255,26049,MI,Genesee County
1256,26051,MI,Gladwin County
1257,26053,MI,Gogebic County
1258,26055,MI,Grand Traverse County
1259,26057,MI,Gratiot County
1260,26059,MI,Hillsdale County
1261,26061,MI,Houghton County
1262,26063,MI,Huron County
1263,26065,MI,Ingham County
1264,26067,MI,Ionia County
1265,26069,MI,Iosco County
1266,26071,MI,Iron County
1267,26073,MI,Isabella County
1268,26075,MI,Jackson County
1269,26077,MI,Kalamazoo County
1270,26079,MI,Kalkaska County
1271,26081,MI,Kent County
1272,26083,MI,Keweenaw County
1273,26085,MI,Lake County
1274,26087,MI,Lapeer County
1275,26089,MI,Leelanau County
1276,26091,MI,Lenawee County
1277,26093,MI,Livingston County
1278,26095,MI,Luce County
1279,26097,MI,Mackinac County
1280,26099,MI,Macomb County
1281,26101,MI,Manistee County
1282,26103,MI,Marquette County
1283,26105,MI,Mason County
1284,26107,MI,Mecosta County
1285,26109,MI,Menominee County
1286,26111,MI,Midland County
1287,26113,MI,Missaukee County
1288,26115,MI,Monroe County
1289,26117,MI,Montcalm County
1290,26119,MI,Montmorency County
1291,26121,MI,Muskegon County
1292,26123,MI,Newaygo County
1293,26125,MI,Oakland County
1294,26127,MI,Oceana County
1295,26129,MI,Ogemaw County
1296,26131,MI,Ontonagon County
1297,26133,MI,Osceola County
1298,26135,MI,Oscoda County
1299,26137,MI,Otsego County
1300,26139,MI,Ottawa County
1301,26141,MI,Presque Isle County
1302,26143,MI,Roscommon County
1303,26145,MI,Saginaw County
1304,26147,MI,St. Clair County
1305,26149,MI,St. Joseph County
1306,26151,MI,Sanilac County
1307,26153,MI,Schoolcraft County
1308,26155,MI,Shiawassee County
1309,26157,MI,Tuscola County
1310,26159,MI,Van Buren County
1311,26161,MI,Washtenaw County
1312,26163,MI,Wayne County
1313,26165,MI,Wexford County
1314,27001,MN,Aitkin County
1315,27003,MN,Anoka County
1316,27005,MN,Becker County
1317,27007,MN,Beltrami County
1318,27009,MN,Benton County
1319,27011,MN,Big Stone County
1320,27013,MN,Blue Earth County
1321,27015,MN,Brown County
1322,27017,MN,Carlton County
1323,27019,MN,Carver County
1324,27021,MN,Cass County
1325,27023,MN,Chippewa County
1326,27025,MN,Chisago County
1327,27027,MN,Clay County
1328,27029,MN,Clearwater County
1329,27031,MN,Cook County
1330,27033,MN,Cottonwood County
1331,27035,MN,Crow Wing County
1332,27037,MN,Dakota County
1333,27039,MN,Dodge County
1334,27041,MN,Douglas County
1335,27043,MN,Faribault County
1336,27045,MN,Fillmore County
1337,27047,MN,Freeborn County
1338,27049,MN,Goodhue County
1339,27051,MN,Grant County
1340,27053,MN,Hennepin County
1341,27055,MN,Houston County
1342,27057,MN,Hubbard County
1343,27059,MN,Isanti County
1344,27061,MN,Itasca County
1345,27063,MN,Jackson County
1346,27065,MN,Kanabec County
1347,27067,MN,Kandiyohi County
1348,27069,MN,Kittson County
1349,27071,MN,Koochiching County
1350,27073,MN,Lac qui Parle County
1351,27075,MN,Lake County
1352,27077,MN,Lake of the Woods County
1353,27079,MN,Le Sueur County
1354,27081,MN,Lincoln County
1355,27083,MN,Lyon County
1356,27085,MN,McLeod County
1357,27087,MN,Mahnomen County
1358,27089,MN,Marshall County
1359,27091,MN,Martin County
1360,27093,MN,Meeker County
1361,27095,MN,Mille Lacs County
1362,27097,MN,Morrison County
1363,27099,MN,Mower County
1364,27101,MN,Murray County
1365,27103,MN,Nicollet County
1366,27105,MN,Nobles County
1367,27107,MN,Norman County
1368,27109,MN,Olmsted County
1369,27111,MN,Otter Tail County
1370,27113,MN,Pennington County
1371,27115,MN,Pine County
1372,27117,MN,Pipestone County
1373,27119,MN,Polk County
1374,27121,MN,Pope County
1375,27123,MN,Ramsey County
1376,27125,MN,Red Lake County
1377,27127,MN,Redwood County
1378,27129,MN,Renville County
1379,27131,MN,Rice County
1380,27133,MN,Rock County
1381,27135,MN,Roseau County
1382,27137,MN,St. Louis County
1383,27139,MN,Scott County
1384,27141,MN,Sherburne County
1385,27143,MN,Sibley County
1386,27145,MN,Stearns County
1387,27147,MN,Steele County
1388,27149,MN,Stevens County
1389,27151,MN,Swift County
1390,27153,MN,Todd County
1391,27155,MN,Traverse County
1392,27157,MN,Wabasha County
1393,27159,MN,Wadena County
1394,27161,MN,Waseca County
1395,27163,MN,Washington County
1396,27165,MN,Watonwan County
1397,27167,MN,Wilkin County
1398,27169,MN,Winona County
1399,27171,MN,Wright County
1400,27173,MN,Yellow Medicine County
1401,28001,MS,Adams County
1402,28003,MS,Alcorn County
1403,28005,MS,Amite County
1404,28007,MS,Attala County
1405,28009,MS,Benton County
1406,28011,MS,Bolivar County
1407,28013,MS,Calhoun County
1408,28015,MS,Carroll County
1409,28017,MS,Chickasaw County
1410,28019,MS,Choctaw County
1411,28021,MS,Claiborne County
1412,28023,MS,Clarke County
1413,28025,MS,Clay County
1414,28027,MS,Coahoma County
1415,28029,MS,Copiah County
1416,28031,MS,Covington County
1417,28033,MS,DeSoto County
1418,28035,MS,Forrest County
1419,28037,MS,Franklin County
1420,28039,MS,George County
1421,28041,MS,Greene County
1422,28043,MS,Grenada County
1423,28045,MS,Hancock County
1424,28047,MS,Harrison County
1425,28049,MS,Hinds County
1426,28051,MS,Holmes County
1427,28053,MS,Humphreys County
1428,28055,MS,Issaquena County
1429,28057,MS,Itawamba County
1430,28059,MS,Jackson County
1431,28061,MS,Jasper County
1432,28063,MS,Jefferson County
1433,28065,MS,Jefferson Davis County
1434,28067,MS,Jones County
1435,28069,MS,Kemper County
1436,28071,MS,Lafayette County
1437,28073,MS,Lamar County
1438,28075,MS,Lauderdale County
1439,28077,MS,Lawrence County
1440,28079,MS,Leake County
1441,28081,MS,Lee County
1442,28083,MS,Leflore County
1443,28085,MS,Lincoln County
1444,28087,MS,Lowndes County
1445,28089,MS,Madison County
1446,28091,MS,Marion County
1447,28093,MS,Marshall County
1448,28095,MS,Monroe County
1449,28097,MS,Montgomery County
1450,28099,MS,Neshoba County
1451,28101,MS,Newton County
1452,28103,MS,Noxubee County
1453,28105,MS,Oktibbeha County
1454,28107,MS,Panola County
1455,28109,MS,Pearl River County
1456,28111,MS,Perry County
1457,28113,MS,Pike County
1458,28115,MS,Pontotoc County
1459,28117,MS,Prentiss County
1460,28119,MS,Quitman County
1461,28121,MS,Rankin County
1462,28123,MS,Scott County
1463,28125,MS,Sharkey County
1464,28127,MS,Simpson County
1465,28129,MS,Smith County
1466,28131,MS,Stone County
1467,28133,MS,Sunflower County
1468,28135,MS,Tallahatchie County
1469,28137,MS,Tate County
1470,28139,MS,Tippah County
1471,28141,MS,Tishomingo County
1472,28143,MS,Tunica County
1473,28145,MS,Union County
1474,28147,MS,Walthall County
1475,28149,MS,Warren County
1476,28151,MS,Washington County
1477,28153,MS,Wayne County
1478,28155,MS,Webster County
1479,28157,MS,Wilkinson County
1480,28159,MS,Winston County
1481,28161,MS,Yalobusha County
1482,28163,MS,Yazoo County
1483,29001,MO,Adair County
1484,29003,MO,Andrew County
1485,29005,MO,Atchison County
1486,29007,MO,Audrain County
1487,29009,MO,Barry County
1488,29011,MO,Barton County
1489,29013,MO,Bates County
1490,29015,MO,Benton County
1491,29017,MO,Bollinger County
1492,29019,MO,Boone County
1493,29021,MO,Buchanan County
1494,29023,MO,Butler County
1495,29025,MO,Caldwell County
1496,29027,MO,Callaway County
1497,29029,MO,Camden County
1498,29031,MO,Cape Girardeau County
1499,29033,MO,Carroll County
1500,29035,MO,Carter County
1501,29037,MO,Cass County
1502,29039,MO,Cedar County
1503,29041,MO,Chariton County
1504,29043,MO,Christian County
1505,29045,MO,Clark County
1506,29047,MO,Clay County
1507,29049,MO,Clinton County
1508,29051,MO,Cole County
1509,29053,MO,Cooper County
1510,29055,MO,Crawford County
1511,29057,MO,Dade County
1512,29059,MO,Dallas County
1513,29061,MO,Daviess County
1514,29063,MO,DeKalb County
1515,29065,MO,Dent County
1516,29067,MO,Douglas County
1517,29069,MO,Dunklin County
1518,29071,MO,Franklin County
1519,29073,MO,Gasconade County
1520,29075,MO,Gentry County
1521,29077,MO,Greene County
1522,29079,MO,Grundy County
1523,29081,MO,Harrison County
1524,29083,MO,Henry County
1525,29085,MO,Hickory County
1526,29087,MO,Holt County
1527,29089,MO,Howard County
1528,29091,MO,Howell County
1529,29093,MO,Iron County
1530,29095,MO,Jackson County
1531,29097,MO,Jasper County
1532,29099,MO,Jefferson County
1533,29101,MO,Johnson County
1534,29103,MO,Knox County
1535,29105,MO,Laclede County
1536,29107,MO,Lafayette County
1537,29109,MO,Lawrence County
1538,29111,MO,Lewis County
1539,29113,MO,Lincoln County
1540,29115,MO,Linn County
1541,29117,MO,Livingston County
1542,29119,MO,McDonald County
1543,29121,MO,Macon County
1544,29123,MO,Madison County
1545,29125,MO,Maries County
1546,29127,MO,Marion County
1547,29129,MO,Mercer County
1548,29131,MO,Miller County
1549,29133,MO,Mississippi County
1550,29135,MO,Moniteau County
1551,29137,MO,Monroe County
1552,29139,MO,Montgomery County
1553,29141,MO,Morgan County
1554,29143,MO,New Madrid County
1555,29145,MO,Newton County
1556,29147,MO,Nodaway County
1557,29149,MO,Oregon County
1558,29151,MO,Osage County
1559,29153,MO,Ozark County
1560,29155,MO,Pemiscot County
1561,29157,MO,Perry County
1562,29159,MO,Pettis County
1563,29161,MO,Phelps County
1564,29163,MO,Pike County
1565,29165,MO,Platte County
1566,29167,MO,Polk County
1567,29169,MO,Pulaski County
1568,29171,MO,Putnam County
1569,29173,MO,Ralls County
1570,29175,MO,Randolph County
1571,29177,MO,Ray County
1572,29179,MO,Reynolds County
1573,29181,MO,Ripley County
1574,29183,MO,St. Charles County
1575,29185,MO,St. Clair County
1576,29186,MO,Ste. Genevieve County
1577,29187,MO,St. Francois County
1578,29189,MO,St. Louis County
1579,29195,MO,Saline County
1580,29197,MO,Schuyler County
1581,29199,MO,Scotland County
1582,29201,MO,Scott County
1583,29203,MO,Shannon County
1584,29205,MO,Shelby County
1585,29207,MO,Stoddard County
1586,29209,MO,Stone County
1587,29211,MO,Sullivan County
1588,29213,MO,Taney County
1589,29215,MO,Texas County
1590,29217,MO,Vernon County
1591,29219,MO,Warren County
1592,29221,MO,Washington County
1593,29223,MO,Wayne County
1594,29225,MO,Webster County
1595,29227,MO,Worth County
1596,29229,MO,Wright County
1597,29510,MO,St. Louis city
1598,30001,MT,Beaverhead County
1599,30003,MT,Big Horn County
1600,30005,MT,Blaine County
1601,30007,MT,Broadwater County
1602,30009,MT,Carbon County
1603,30011,MT,Carter County
1604,30013,MT,Cascade County
1605,30015,MT,Chouteau County
1606,30017,MT,Custer County
1607,30019,MT,Daniels County
1608,30021,MT,Dawson County
1609,30023,MT,Deer Lodge County
1610,30025,MT,Fallon County
1611,30027,MT,Fergus County
1612,30029,MT,Flathead County
1613,30031,MT,Gallatin County
1614,30033,MT,Garfield County
1615,30035,MT,Glacier County
1616,30037,MT,Golden Valley County
1617,30039,MT,Granite County
1618,30041,MT,Hill County
1619,30043,MT,Jefferson County
1620,30045,MT,Judith Basin County
1621,30047,MT,Lake County
1622,30049,MT,Lewis and Clark County
1623,30051,MT,Liberty County
1624,30053,MT,Lincoln County
1625,30055,MT,McCone County
1626,30057,MT,Madison County
1627,30059,MT,Meagher County
1628,30061,MT,Mineral County
1629,30063,MT,Missoula County
1630,30065,MT,Musselshell County
1631,30067,MT,Park County
1632,30069,MT,Petroleum County
1633,30071,MT,Phillips County
1634,30073,MT,Pondera County
1635,30075,MT,Powder River County
1636,30077,MT,Powell County
1637,30079,MT,Prairie County
1638,30081,MT,Ravalli County
1639,30083,MT,Richland County
1640,30085,MT,Roosevelt County
1641,30087,MT,Rosebud County
1642,30089,MT,Sanders County
1643,30091,MT,Sheridan County
1644,30093,MT,Silver Bow County
1645,30095,MT,Stillwater County
1646,30097,MT,Sweet Grass County
1647,30099,MT,Teton County
1648,30101,MT,Toole County
1649,30103,MT,Treasure County
1650,30105,MT,Valley County
1651,30107,MT,Wheatland County
1652,30109,MT,Wibaux County
1653,30111,MT,Yellowstone County
1654,31001,NE,Adams County
1655,31003,NE,Antelope County
1656,31005,NE,Arthur County
1657,31007,NE,Banner County
1658,31009,NE,Blaine County
1659,31011,NE,Boone County
1660,31013,NE,Box Butte County
1661,31015,NE,Boyd County
1662,31017,NE,Brown County
1663,31019,NE,Buffalo County
1664,31021,NE,Burt County
1665,31023,NE,Butler County
1666,31025,NE,Cass County
1667,31027,NE,Cedar County
1668,31029,NE,Chase County
1669,31031,NE,Cherry County
1670,31033,NE,Cheyenne County
1671,31035,NE,Clay County
1672,31037,NE,Colfax County
1673,31039,NE,Cuming County
1674,31041,NE,Custer County
1675,31043,NE,Dakota County
1676,31045,NE,Dawes County
1677,31047,NE,Dawson County
1678,31049,NE,Deuel County
1679,31051,NE,Dixon County
1680,31053,NE,Dodge County
1681,31055,NE,Douglas County
1682,31057,NE,Dundy County
1683,31059,NE,Fillmore County
1684,31061,NE,Franklin County
1685,31063,NE,Frontier County
1686,31065,NE,Furnas County
1687,31067,NE,Gage County
1688,31069,NE,Garden County
1689,31071,NE,Garfield County
1690,31073,NE,Gosper County
1691,31075,NE,Grant County
1692,31077,NE,Greeley County
1693,31079,NE,Hall County
1694,31081,NE,Hamilton County
1695,31083,NE,Harlan County
1696,31085,NE,Hayes County
1697,31087,NE,Hitchcock County
1698,31089,NE,Holt County
1699,31091,NE,Hooker County
1700,31093,NE,Howard County
1701,31095,NE,Jefferson County
1702,31097,NE,Johnson County
1703,31099,NE,Kearney County
1704,31101,NE,Keith County
1705,31103,NE,Keya Paha County
1706,31105,NE,Kimball County
1707,31107,NE,Knox County
1708,31109,NE,Lancaster County
1709,31111,NE,Lincoln County
1710,31113,NE,Logan County
1711,31115,NE,Loup County
1712,31117,NE,McPherson County
1713,31119,NE,Madison County
1714,31121,NE,Merrick County
1715,31123,NE,Morrill County
1716,31125,NE,Nance County
1717,31127,NE,Nemaha County
1718,31129,NE,Nuckolls County
1719,31131,NE,Otoe County
1720,31133,NE,Pawnee County
1721,31135,NE,Perkins County
1722,31137,NE,Phelps County
1723,31139,NE,Pierce County
1724,31141,NE,Platte County
1725,31143,NE,Polk County
1726,31145,NE,Red Willow County
1727,31147,NE,Richardson County
1728,31149,NE,Rock County
1729,31151,NE,Saline County
1730,31153,NE,Sarpy County
1731,31155,NE,Saunders County
1732,31157,NE,Scotts Bluff County
1733,31159,NE,Seward County
1734,31161,NE,Sheridan County
1735,31163,NE,Sherman County
1736,31165,NE,Sioux County
1737,31167,NE,Stanton County
1738,31169,NE,Thayer County
1739,31171,NE,Thomas County
1740,31173,NE,Thurston County
1741,31175,NE,Valley County
1742,31177,NE,Washington County
1743,31179,NE,Wayne County
1744,31181,NE,Webster County
1745,31183,NE,Wheeler County
1746,31185,NE,York County
1747,32001,NV,Churchill County
1748,32003,NV,Clark County
1749,32005,NV,Douglas County
1750,32007,NV,Elko County
1751,32009,NV,Esmeralda County
1752,32011,NV,Eureka County
1753,32013,NV,Humboldt County
1754,32015,NV,Lander County
1755,32017,NV,Lincoln County
1756,32019,NV,Lyon County
1757,32021,NV,Mineral County
1758,32023,NV,Nye County
1759,32027,NV,Pershing County
1760,32029,NV,Storey County
1761,32031,NV,Washoe County
1762,32033,NV,White Pine County
1763,32510,NV,Carson City
1764,33001,NH,Belknap County
1765,33003,NH,Carroll County
1766,33005,NH,Cheshire County
1767,33007,NH,Coos County
1768,33009,NH,Grafton County
1769,33011,NH,Hillsborough County
1770,33013,NH,Merrimack County
1771,33015,NH,Rockingham County
1772,33017,NH,Strafford County
1773,33019,NH,Sullivan County
1774,34001,NJ,Atlantic County
1775,34003,NJ,Bergen County
1776,34005,NJ,Burlington County
1777,34007,NJ,Camden County
1778,34009,NJ,Cape May County
1779,34011,NJ,Cumberland County
1780,34013,NJ,Essex County
1781,34015,NJ,Gloucester County
1782,34017,NJ,Hudson County
1783,34019,NJ,Hunterdon County
1784,34021,NJ,Mercer County
1785,34023,NJ,Middlesex County
1786,34025,NJ,Monmouth County
1787,34027,NJ,Morris County
1788,34029,NJ,Ocean County
1789,34031,NJ,Passaic County
1790,34033,NJ,Salem County
1791,34035,NJ,Somerset County
1792,34037,NJ,Sussex County
1793,34039,NJ,Union County
1794,34041,NJ,Warren County
1795,35001,NM,Bernalillo County
1796,35003,NM,Catron County
1797,35005,NM,Chaves County
1798,35006,NM,Cibola County
1799,35007,NM,Colfax County
1800,35009,NM,Curry County
1801,35011,NM,De Baca County
1802,35013,NM,Dona Ana County
1803,35015,NM,Eddy County
1804,35017,NM,Grant County
1805,35019,NM,Guadalupe County
1806,35021,NM,Harding County
1807,35023,NM,Hidalgo County
1808,35025,NM,Lea County
1809,35027,NM,Lincoln County
1810,35028,NM,Los Alamos County
1811,35029,NM,Luna County
1812,35031,NM,McKinley County
1813,35033,NM,Mora County
1814,35035,NM,Otero County
1815,35037,NM,Quay County
1816,35039,NM,Rio Arriba County
1817,35041,NM,Roosevelt County
1818,35043,NM,Sandoval County
1819,35045,NM,San Juan County
1820,35047,NM,San Miguel County
1821,35049,NM,Santa Fe County
1822,35051,NM,Sierra County
1823,35053,NM,Socorro County
1824,35055,NM,Taos County
1825,35057,NM,Torrance County
1826,35059,NM,Union County
1827,35061,NM,Valencia County
1828,36001,NY,Albany County
1829,36003,NY,Allegany County
1830,36005,NY,Bronx County
1831,36007,NY,Broome County
1832,36009,NY,Cattaraugus County
1833,36011,NY,Cayuga County
1834,36013,NY,Chautauqua County
1835,36015,NY,Chemung County
1836,36017,NY,Chenango County
1837,36019,NY,Clinton County
1838,36021,NY,Columbia County
1839,36023,NY,Cortland County
1840,36025,NY,Delaware County
1841,36027,NY,Dutchess County
1842,36029,NY,Erie County
1843,36031,NY,Essex County
1844,36033,NY,Franklin County
1845,36035,NY,Fulton County
1846,36037,NY,Genesee County
1847,36039,NY,Greene County
1848,36041,NY,Hamilton County
1849,36043,NY,Herkimer County
1850,36045,NY,Jefferson County
1851,36047,NY,Kings County
1852,36049,NY,Lewis County
1853,36051,NY,Livingston County
1854,36053,NY,Madison County
1855,36055,NY,Monroe County
1856,36057,NY,Montgomery County
1857,36059,NY,Nassau County
1858,36061,NY,New York County
1859,36063,NY,Niagara County
1860,36065,NY,Oneida County
1861,36067,NY,Onondaga County
1862,36069,NY,Ontario County
1863,36071,NY,Orange County
1864,36073,NY,Orleans County
1865,36075,NY,Oswego County
1866,36077,NY,Otsego County
1867,36079,NY,Putnam County
1868,36081,NY,Queens County
1869,36083,NY,Rensselaer County
1870,36085,NY,Richmond County
1871,36087,NY,Rockland County
1872,36089,NY,St. Lawrence County
1873,36091,NY,Saratoga County
1874,36093,NY,Schenectady County
1875,36095,NY,Schoharie County
1876,36097,NY,Schuyler County
1877,36099,NY,Seneca County
1878,36101,NY,Steuben County
1879,36103,NY,Suffolk County
1880,36105,NY,Sullivan County
1881,36107,NY,Tioga County
1882,36109,NY,Tompkins County
1883,36111,NY,Ulster County
1884,36113,NY,Warren County
1885,36115,NY,Washington County
1886,36117,NY,Wayne County
1887,36119,NY,Westchester County
1888,36121,NY,Wyoming County
1889,36123,NY,Yates County
1890,37001,NC,Alamance County
1891,37003,NC,Alexander County
1892,37005,NC,Alleghany County
1893,37007,NC,Anson County
1894,37009,NC,Ashe County
1895,37011,NC,Avery County
1896,37013,NC,Beaufort County
1897,37015,NC,Bertie County
1898,37017,NC,Bladen County
1899,37019,NC,Brunswick County
1900,37021,NC,Buncombe County
1901,37023,NC,Burke County
1902,37025,NC,Cabarrus County
1903,37027,NC,Caldwell County
1904,37029,NC,Camden County
1905,37031,NC,Carteret County
1906,37033,NC,Caswell County
1907,37035,NC,Catawba County
1908,37037,NC,Chatham County
1909,37039,NC,Cherokee County
1910,37041,NC,Chowan County
1911,37043,NC,Clay County
1912,37045,NC,Cleveland County
1913,37047,NC,Columbus County
1914,37049,NC,Craven County
1915,37051,NC,Cumberland County
1916,37053,NC,Currituck County
1917,37055,NC,Dare County
1918,37057,NC,Davidson County
1919,37059,NC,Davie County
1920,37061,NC,Duplin County
1921,37063,NC,Durham County
1922,37065,NC,Edgecombe County
1923,37067,NC,Forsyth County
1924,37069,NC,Franklin County
1925,37071,NC,Gaston County
1926,37073,NC,Gates County
1927,37075,NC,Graham County
1928,37077,NC,Granville County
1929,37079,NC,Greene County
1930,37081,NC,Guilford County
1931,37083,NC,Halifax County
1932,37085,NC,Harnett County
1933,37087,NC,Haywood County
1934,37089,NC,Henderson County
1935,37091,NC,Hertford County
1936,37093,NC,Hoke County
1937,37095,NC,Hyde County
1938,37097,NC,Iredell County
1939,37099,NC,Jackson County
1940,37101,NC,Johnston County
1941,37103,NC,Jones County
1942,37105,NC,Lee County
1943,37107,NC,Lenoir County
1944,37109,NC,Lincoln County
1945,37111,NC,McDowell County
1946,37113,NC,Macon County
1947,37115,NC,Madison County
1948,37117,NC,Martin County
1949,37119,NC,Mecklenburg County
1950,37121,NC,Mitchell County
1951,37123,NC,Montgomery County
1952,37125,NC,Moore County
1953,37127,NC,Nash County
1954,37129,NC,New Hanover County
1955,37131,NC,Northampton County
1956,37133,NC,Onslow County
1957,37135,NC,Orange County
1958,37137,NC,Pamlico County
1959,37139,NC,Pasquotank County
1960,37141,NC,Pender County
1961,37143,NC,Perquimans County
1962,37145,NC,Person County
1963,37147,NC,Pitt County
1964,37149,NC,Polk County
1965,37151,NC,Randolph County
1966,37153,NC,Richmond County
1967,37155,NC,Robeson County
1968,37157,NC,Rockingham County
1969,37159,NC,Rowan County
1970,37161,NC,Rutherford County
1971,37163,NC,Sampson County
1972,37165,NC,Scotland County
1973,37167,NC,Stanly County
1974,37169,NC,Stokes County
1975,37171,NC,Surry County
1976,37173,NC,Swain County
1977,37175,NC,Transylvania County
1978,37177,NC,Tyrrell County
1979,37179,NC,Union County
1980,37181,NC,Vance County
1981,37183,NC,Wake County
1982,37185,NC,Warren County
1983,37187,NC,Washington County
1984,37189,NC,Watauga County
1985,37191,NC,Wayne County
1986,37193,NC,Wilkes County
1987,37195,NC,Wilson County
1988,37197,NC,Yadkin County
1989,37199,NC,Yancey County
1990,38001,ND,Adams County
1991,38003,ND,Barnes County
1992,38005,ND,Benson County
1993,38007,ND,Billings County
1994,38009,ND,Bottineau County
1995,38011,ND,Bowman County
1996,38013,ND,Burke County
1997,38015,ND,Burleigh County
1998,38017,ND,Cass County
1999,38019,ND,Cavalier County
2000,38021,ND,Dickey County
2001,38023,ND,Divide County
2002,38025,ND,Dunn County
2003,38027,ND,Eddy County
2004,38029,ND,Emmons County
2005,38031,ND,Foster County
2006,38033,ND,Golden Valley County
2007,38035,ND,Grand Forks County
2008,38037,ND,Grant County
2009,38039,ND,Griggs County
2010,38041,ND,Hettinger County
2011,38043,ND,Kidder County
2012,38045,ND,LaMoure County
2013,38047,ND,Logan County
2014,38049,ND,McHenry County
2015,38051,ND,McIntosh County
2016,38053,ND,McKenzie County
2017,38055,ND,McLean County
2018,38057,ND,Mercer County
2019,38059,ND,Morton County
2020,38061,ND,Mountrail County
2021,38063,ND,Nelson County
2022,38065,ND,Oliver County
2023,38067,ND,Pembina County
2024,38069,ND,Pierce County
2025,38071,ND,Ramsey County
2026,38073,ND,Ransom County
2027,38075,ND,Renville County
2028,38077,ND,Richland County
2029,38079,ND,Rolette County
2030,38081,ND,Sargent County
2031,38083,ND,Sheridan County
2032,38085,ND,Sioux County
2033,38087,ND,Slope County
2034,38089,ND,Stark County
2035,38091,ND,Steele County
2036,38093,ND,Stutsman County
2037,38095,ND,Towner County
2038,38097,ND,Traill County
2039,38099,ND,Walsh County
2040,38101,ND,Ward County
2041,38103,ND,Wells County
2042,38105,ND,Williams County
2043,39001,OH,Adams County
2044,39003,OH,Allen County
2045,39005,OH,Ashland County
2046,39007,OH,Ashtabula County
2047,39009,OH,Athens County
2048,39011,OH,Auglaize County
2049,39013,OH,Belmont County
2050,39015,OH,Brown County
2051,39017,OH,Butler County
2052,39019,OH,Carroll County
2053,39021,OH,Champaign County
2054,39023,OH,Clark County
2055,39025,OH,Clermont County
2056,39027,OH,Clinton County
2057,39029,OH,Columbiana County
2058,39031,OH,Coshocton County
2059,39033,OH,Crawford County
2060,39035,OH,Cuyahoga County
2061,39037,OH,Darke County
2062,39039,OH,Defiance County
2063,39041,OH,Delaware County
2064,39043,OH,Erie County
2065,39045,OH,Fairfield County
2066,39047,OH,Fayette County
2067,39049,OH,Franklin County
2068,39051,OH,Fulton County
2069,39053,OH,Gallia County
2070,39055,OH,Geauga County
2071,39057,OH,Greene County
2072,39059,OH,Guernsey County
2073,39061,OH,Hamilton County
2074,39063,OH,Hancock County
2075,39065,OH,Hardin County
2076,39067,OH,Harrison County
2077,39069,OH,Henry County
2078,39071,OH,Highland County
2079,39073,OH,Hocking County
2080,39075,OH,Holmes County
2081,39077,OH,Huron County
2082,39079,OH,Jackson County
2083,39081,OH,Jefferson County
2084,39083,OH,Knox County
2085,39085,OH,Lake County
2086,39087,OH,Lawrence County
2087,39089,OH,Licking County
2088,39091,OH,Logan County
2089,39093,OH,Lorain County
2090,39095,OH,Lucas County
2091,39097,OH,Madison County
2092,39099,OH,Mahoning County
2093,39101,OH,Marion County
2094,39103,OH,Medina County
2095,39105,OH,Meigs County
2096,39107,OH,Mercer County
2097,39109,OH,Miami County
2098,39111,OH,Monroe County
2099,39113,OH,Montgomery County
2100,39115,OH,Morgan County
2101,39117,OH,Morrow County
2102,39119,OH,Muskingum County
2103,39121,OH,Noble County
2104,39123,OH,Ottawa County
2105,39125,OH,Paulding County
2106,39127,OH,Perry County
2107,39129,OH,Pickaway County
2108,39131,OH,Pike County
2109,39133,OH,Portage County
2110,39135,OH,Preble County
2111,39137,OH,Putnam County
2112,39139,OH,Richland County
2113,39141,OH,Ross County
2114,39143,OH,Sandusky County
2115,39145,OH,Scioto County
2116,39147,OH,Seneca County
2117,39149,OH,Shelby County
2118,39151,OH,Stark County
2119,39153,OH,Summit County
2120,39155,OH,Trumbull County
2121,39157,OH,Tuscarawas County
2122,39159,OH,Union County
2123,39161,OH,Van Wert County
2124,39163,OH,Vinton County
2125,39165,OH,Warren County
2126,39167,OH,Washington County
2127,39169,OH,Wayne County
2128,39171,OH,Williams County
2129,39173,OH,Wood County
2130,39175,OH,Wyandot County
2131,40001,OK,Adair County
2132,40003,OK,Alfalfa County
2133,40005,OK,Atoka County
2134,40007,OK,Beaver County
2135,40009,OK,Beckham County
2136,40011,OK,Blaine County
2137,40013,OK,Bryan County
2138,40015,OK,Caddo County
2139,40017,OK,Canadian County
2140,40019,OK,Carter County
2141,40021,OK,Cherokee County
2142,40023,OK,Choctaw County
2143,40025,OK,Cimarron County
2144,40027,OK,Cleveland County
2145,40029,OK,Coal County
2146,40031,OK,Comanche County
2147,40033,OK,Cotton County
2148,40035,OK,Craig County
2149,40037,OK,Creek County
2150,40039,OK,Custer County
2151,40041,OK,Delaware County
2152,40043,OK,Dewey County
2153,40045,OK,Ellis County
2154,40047,OK,Garfield County
2155,40049,OK,Garvin County
2156,40051,OK,Grady County
2157,40053,OK,Grant County
2158,40055,OK,Greer County
2159,40057,OK,Harmon County
2160,40059,OK,Harper County
2161,40061,OK,Haskell County
2162,40063,OK,Hughes County
2163,40065,OK,Jackson County
2164,40067,OK,Jefferson County
2165,40069,OK,Johnston County
2166,40071,OK,Kay County
2167,40073,OK,Kingfisher County
2168,40075,OK,Kiowa County
2169,40077,OK,Latimer County
2170,40079,OK,Le Flore County
2171,40081,OK,Lincoln County
2172,40083,OK,Logan County
2173,40085,OK,Love County
2174,40087,OK,McClain County
2175,40089,OK,McCurtain County
2176,40091,OK,McIntosh County
2177,40093,OK,Major County
2178,40095,OK,Marshall County
2179,40097,OK,Mayes County
2180,40099,OK,Murray County
2181,40101,OK,Muskogee County
2182,40103,OK,Noble County
2183,40105,OK,Nowata County
2184,40107,OK,Okfuskee County
2185,40109,OK,Oklahoma County
2186,40111,OK,Okmulgee County
2187,40113,OK,Osage County
2188,40115,OK,Ottawa County
2189,40117,OK,Pawnee County
2190,40119,OK,Payne County
2191,40121,OK,Pittsburg County
2192,40123,OK,Pontotoc County
2193,40125,OK,Pottawatomie County
2194,40127,OK,Pushmataha County
2195,40129,OK,Roger Mills County
2196,40131,OK,Rogers County
2197,40133,OK,Seminole County
2198,40135,OK,Sequoyah County
2199,40137,OK,Stephens County
2200,40139,OK,Texas County
2201,40141,OK,Tillman County
2202,40143,OK,Tulsa County
2203,40145,OK,Wagoner County
2204,40147,OK,Washington County
2205,40149,OK,Washita County
2206,40151,OK,Woods County
2207,40153,OK,Woodward County
2208,41001,OR,Baker County
2209,41003,OR,Benton County
2210,41005,OR,Clackamas County
2211,41007,OR,Clatsop County
2212,41009,OR,Columbia County
2213,41011,OR,Coos County
2214,41013,OR,Crook County
2215,41015,OR,Curry County
2216,41017,OR,Deschutes County
2217,41019,OR,Douglas County
2218,41021,OR,Gilliam County
2219,41023,OR,Grant County
2220,41025,OR,Harney County
2221,41027,OR,Hood River County
2222,41029,OR,Jackson County
2223,41031,OR,Jefferson County
2224,41033,OR,Josephine County
2225,41035,OR,Klamath County
2226,41037,OR,Lake County
2227,41039,OR,Lane County
2228,41041,OR,Lincoln County
2229,41043,OR,Linn County
2230,41045,OR,Malheur County
2231,41047,OR,Marion County
2232,41049,OR,Morrow County
2233,41051,OR,Multnomah County
2234,41053,OR,Polk County
2235,41055,OR,Sherman County
2236,41057,OR,Tillamook County
2237,41059,OR,Umatilla County
2238,41061,OR,Union County
2239,41063,OR,Wallowa County
2240,41065,OR,Wasco County
2241,41067,OR,Washington County
2242,41069,OR,Wheeler County
2243,41071,OR,Yamhill County
2244,42001,PA,Adams County
2245,42003,PA,Allegheny County
2246,42005,PA,Armstrong County
2247,42007,PA,Beaver County
2248,42009,PA,Bedford County
2249,42011,PA,Berks County
2250,42013,PA,Blair County
2251,42015,PA,Bradford County
2252,42017,PA,Bucks County
2253,42019,PA,Butler County
2254,42021,PA,Cambria County
2255,42023,PA,Cameron County
2256,42025,PA,Carbon County
2257,42027,PA,Centre County
2258,42029,PA,Chester County
2259,42031,PA,Clarion County
2260,42033,PA,Clearfield County
2261,42035,PA,Clinton County
2262,42037,PA,Columbia County
2263,42039,PA,Crawford County
2264,42041,PA,Cumberland County
2265,42043,PA,Dauphin County
2266,42045,PA,Delaware County
2267,42047,PA,Elk County
2268,42049,PA,Erie County
2269,42051,PA,Fayette County
2270,42053,PA,Forest County
2271,42055,PA,Franklin County
2272,42057,PA,Fulton County
2273,42059,PA,Greene County
2274,42061,PA,Huntingdon County
2275,42063,PA,Indiana County
2276,42065,PA,Jefferson County
2277,42067,PA,Juniata County
2278,42069,PA,Lackawanna County
2279,42071,PA,Lancaster County
2280,42073,PA,Lawrence County
2281,42075,PA,Lebanon County
2282,42077,PA,Lehigh County
2283,42079,PA,Luzerne County
2284,42081,PA,Lycoming County
2285,42083,PA,McKean County
2286,42085,PA,Mercer County
2287,42087,PA,Mifflin County
2288,42089,PA,Monroe County
2289,42091,PA,Montgomery County
2290,42093,PA,Montour County
2291,42095,PA,Northampton County
2292,42097,PA,Northumberland County
2293,42099,PA,Perry County
2294,42101,PA,Philadelphia County
2295,42103,PA,Pike County
2296,42105,PA,Potter County
2297,42107,PA,Schuylkill County
2298,42109,PA,Snyder County
2299,42111,PA,Somerset County
2300,42113,PA,Sullivan County
2301,42115,PA,Susquehanna County
2302,42117,PA,Tioga County
2303,42119,PA,Union County
2304,42121,PA,Venango County
2305,42123,PA,Warren County
2306,42125,PA,Washington County
2307,42127,PA,Wayne County
2308,42129,PA,Westmoreland County
2309,42131,PA,Wyoming County
2310,42133,PA,York County
2311,44001,RI,Bristol County
2312,44003,RI,Kent County
2313,44005,RI,Newport County
2314,44007,RI,Providence County
2315,44009,RI,Washington County
2316,45001,SC,Abbeville County
2317,45003,SC,Aiken County
2318,45005,SC,Allendale County
2319,45007,SC,Anderson County
2320,45009,SC,Bamberg County
2321,45011,SC,Barnwell County
2322,45013,SC,Beaufort County
2323,45015,SC,Berkeley County
2324,45017,SC,Calhoun County
2325,45019,SC,Charleston County
2326,45021,SC,Cherokee County
2327,45023,SC,Chester County
2328,45025,SC,Chesterfield County
2329,45027,SC,Clarendon County
2330,45029,SC,Colleton County
2331,45031,SC,Darlington County
2332,45033,SC,Dillon County
2333,45035,SC,Dorchester County
2334,45037,SC,Edgefield County
2335,45039,SC,Fairfield County
2336,45041,SC,Florence County
2337,45043,SC,Georgetown County
2338,45045,SC,Greenville County
2339,45047,SC,Greenwood County
2340,45049,SC,Hampton County
2341,45051,SC,Horry County
2342,45053,SC,Jasper County
2343,45055,SC,Kershaw County
2344,45057,SC,Lancaster County
2345,45059,SC,Laurens County
2346,45061,SC,Lee County
2347,45063,SC,Lexington County
2348,45065,SC,McCormick County
2349,45067,SC,Marion County
2350,45069,SC,Marlboro County
2351,45071,SC,Newberry County
2352,45073,SC,Oconee County
2353,45075,SC,Orangeburg County
2354,45077,SC,Pickens County
2355,45079,SC,Richland County
2356,45081,SC,Saluda County
2357,45083,SC,Spartanburg County
2358,45085,SC,Sumter County
2359,45087,SC,Union County
2360,45089,SC,Williamsburg County
2361,45091,SC,York County
2362,46003,SD,Aurora County
2363,46005,SD,Beadle County
2364,46007,SD,Bennett County
2365,46009,SD,Bon Homme County
2366,46011,SD,Brookings County
2367,46013,SD,Brown County
2368,46015,SD,Brule County
2369,46017,SD,Buffalo County
2370,46019,SD,Butte County
2371,46021,SD,Campbell County
2372,46023,SD,Charles Mix County
2373,46025,SD,Clark County
2374,46027,SD,Clay County
2375,46029,SD,Codington County
2376,46031,SD,Corson County
2377,46033,SD,Custer County
2378,46035,SD,Davison County
2379,46037,SD,Day County
2380,46039,SD,Deuel County
2381,46041,SD,Dewey County
2382,46043,SD,Douglas County
2383,46045,SD,Edmunds County
2384,46047,SD,Fall River County
2385,46049,SD,Faulk County
2386,46051,SD,Grant County
2387,46053,SD,Gregory County
2388,46055,SD,Haakon County
2389,46057,SD,Hamlin County
2390,46059,SD,Hand County
2391,46061,SD,Hanson County
2392,46063,SD,Harding County
2393,46065,SD,Hughes County
2394,46067,SD,Hutchinson County
2395,46069,SD,Hyde County
2396,46071,SD,Jackson County
2397,46073,SD,Jerauld County
2398,46075,SD,Jones County
2399,46077,SD,Kingsbury County
2400,46079,SD,Lake County
2401,46081,SD,Lawrence County
2402,46083,SD,Lincoln County
2403,46085,SD,Lyman County
2404,46087,SD,McCook County
2405,46089,SD,McPherson County
2406,46091,SD,Marshall County
2407,46093,SD,Meade County
2408,46095,SD,Mellette County
2409,46097,SD,Miner County
2410,46099,SD,Minnehaha County
2411,46101,SD,Moody County
2412,46103,SD,Pennington County
2413,46105,SD,Perkins County
2414,46107,SD,Potter County
2415,46109,SD,Roberts County
2416,46111,SD,Sanborn County
2417,46113,SD,Shannon County
2418,46115,SD,Spink County
2419,46117,SD,Stanley County
2420,46119,SD,Sully County
2421,46121,SD,Todd County
2422,46123,SD,Tripp County
2423,46125,SD,Turner County
2424,46127,SD,Union County
2425,46129,SD,Walworth County
2426,46135,SD,Yankton County
2427,46137,SD,Ziebach County
2428,47001,TN,Anderson County
2429,47003,TN,Bedford County
2430,47005,TN,Benton County
2431,47007,TN,Bledsoe County
2432,47009,TN,Blount County
2433,47011,TN,Bradley County
2434,47013,TN,Campbell County
2435,47015,TN,Cannon County
2436,47017,TN,Carroll County
2437,47019,TN,Carter County
2438,47021,TN,Cheatham County
2439,47023,TN,Chester County
2440,47025,TN,Claiborne County
2441,47027,TN,Clay County
2442,47029,TN,Cocke County
2443,47031,TN,Coffee County
2444,47033,TN,Crockett County
2445,47035,TN,Cumberland County
2446,47037,TN,Davidson County
2447,47039,TN,Decatur County
2448,47041,TN,DeKalb County
2449,47043,TN,Dickson County
2450,47045,TN,Dyer County
2451,47047,TN,Fayette County
2452,47049,TN,Fentress County
2453,47051,TN,Franklin County
2454,47053,TN,Gibson County
2455,47055,TN,Giles County
2456,47057,TN,Grainger County
2457,47059,TN,Greene County
2458,47061,TN,Grundy County
2459,47063,TN,Hamblen County
2460,47065,TN,Hamilton County
2461,47067,TN,Hancock County
2462,47069,TN,Hardeman County
2463,47071,TN,Hardin County
2464,47073,TN,Hawkins County
2465,47075,TN,Haywood County
2466,47077,TN,Henderson County
2467,47079,TN,Henry County
2468,47081,TN,Hickman County
2469,47083,TN,Houston County
2470,47085,TN,Humphreys County
2471,47087,TN,Jackson County
2472,47089,TN,Jefferson County
2473,47091,TN,Johnson County
2474,47093,TN,Knox County
2475,47095,TN,Lake County
2476,47097,TN,Lauderdale County
2477,47099,TN,Lawrence County
2478,47101,TN,Lewis County
2479,47103,TN,Lincoln County
2480,47105,TN,Loudon County
2481,47107,TN,McMinn County
2482,47109,TN,McNairy County
2483,47111,TN,Macon County
2484,47113,TN,Madison County
2485,47115,TN,Marion County
2486,47117,TN,Marshall County
2487,47119,TN,Maury County
2488,47121,TN,Meigs County
2489,47123,TN,Monroe County
2490,47125,TN,Montgomery County
2491,47127,TN,Moore County
2492,47129,TN,Morgan County
2493,47131,TN,Obion County
2494,47133,TN,Overton County
2495,47135,TN,Perry County
2496,47137,TN,Pickett County
2497,47139,TN,Polk County
2498,47141,TN,Putnam County
2499,47143,TN,Rhea County
2500,47145,TN,Roane County
2501,47147,TN,Robertson County
2502,47149,TN,Rutherford County
2503,47151,TN,Scott County
2504,47153,TN,Sequatchie County
2505,47155,TN,Sevier County
2506,47157,TN,Shelby County
2507,47159,TN,Smith County
2508,47161,TN,Stewart County
2509,47163,TN,Sullivan County
2510,47165,TN,Sumner County
2511,47167,TN,Tipton County
2512,47169,TN,Trousdale County
2513,47171,TN,Unicoi County
2514,47173,TN,Union County
2515,47175,TN,Van Buren County
2516,47177,TN,Warren County
2517,47179,TN,Washington County
2518,47181,TN,Wayne County
2519,47183,TN,Weakley County
2520,47185,TN,White County
2521,47187,TN,Williamson County
2522,47189,TN,Wilson County
2523,48001,TX,Anderson County
2524,48003,TX,Andrews County
2525,48005,TX,Angelina County
2526,48007,TX,Aransas County
2527,48009,TX,Archer County
2528,48011,TX,Armstrong County
2529,48013,TX,Atascosa County
2530,48015,TX,Austin County
2531,48017,TX,Bailey County
2532,48019,TX,Bandera County
2533,48021,TX,Bastrop County
2534,48023,TX,Baylor County
2535,48025,TX,Bee County
2536,48027,TX,Bell County
2537,48029,TX,Bexar County
2538,48031,TX,Blanco County
2539,48033,TX,Borden County
2540,48035,TX,Bosque County
2541,48037,TX,Bowie County
2542,48039,TX,Brazoria County
2543,48041,TX,Brazos County
2544,48043,TX,Brewster County
2545,48045,TX,Briscoe County
2546,48047,TX,Brooks County
2547,48049,TX,Brown County
2548,48051,TX,Burleson County
2549,48053,TX,Burnet County
2550,48055,TX,Caldwell County
2551,48057,TX,Calhoun County
2552,48059,TX,Callahan County
2553,48061,TX,Cameron County
2554,48063,TX,Camp County
2555,48065,TX,Carson County
2556,48067,TX,Cass County
2557,48069,TX,Castro County
2558,48071,TX,Chambers County
2559,48073,TX,Cherokee County
2560,48075,TX,Childress County
2561,48077,TX,Clay County
2562,48079,TX,Cochran County
2563,48081,TX,Coke County
2564,48083,TX,Coleman County
2565,48085,TX,Collin County
2566,48087,TX,Collingsworth County
2567,48089,TX,Colorado County
2568,48091,TX,Comal County
2569,48093,TX,Comanche County
2570,48095,TX,Concho County
2571,48097,TX,Cooke County
2572,48099,TX,Coryell County
2573,48101,TX,Cottle County
2574,48103,TX,Crane County
2575,48105,TX,Crockett County
2576,48107,TX,Crosby County
2577,48109,TX,Culberson County
2578,48111,TX,Dallam County
2579,48113,TX,Dallas County
2580,48115,TX,Dawson County
2581,48117,TX,Deaf Smith County
2582,48119,TX,Delta County
2583,48121,TX,Denton County
2584,48123,TX,DeWitt County
2585,48125,TX,Dickens County
2586,48127,TX,Dimmit County
2587,48129,TX,Donley County
2588,48131,TX,Duval County
2589,48133,TX,Eastland County
2590,48135,TX,Ector County
2591,48137,TX,Edwards County
2592,48139,TX,Ellis County
2593,48141,TX,El Paso County
2594,48143,TX,Erath County
2595,48145,TX,Falls County
2596,48147,TX,Fannin County
2597,48149,TX,Fayette County
2598,48151,TX,Fisher County
2599,48153,TX,Floyd County
2600,48155,TX,Foard County
2601,48157,TX,Fort Bend County
2602,48159,TX,Franklin County
2603,48161,TX,Freestone County
2604,48163,TX,Frio County
2605,48165,TX,Gaines County
2606,48167,TX,Galveston County
2607,48169,TX,Garza County
2608,48171,TX,Gillespie County
2609,48173,TX,Glasscock County
2610,48175,TX,Goliad County
2611,48177,TX,Gonzales County
2612,48179,TX,Gray County
2613,48181,TX,Grayson County
2614,48183,TX,Gregg County
2615,48185,TX,Grimes County
2616,48187,TX,Guadalupe County
2617,48189,TX,Hale County
2618,48191,TX,Hall County
2619,48193,TX,Hamilton County
2620,48195,TX,Hansford County
2621,48197,TX,Hardeman County
2622,48199,TX,Hardin County
2623,48201,TX,Harris County
2624,48203,TX,Harrison County
2625,48205,TX,Hartley County
2626,48207,TX,Haskell County
2627,48209,TX,Hays County
2628,48211,TX,Hemphill County
2629,48213,TX,Henderson County
2630,48215,TX,Hidalgo County
2631,48217,TX,Hill County
2632,48219,TX,Hockley County
2633,48221,TX,Hood County
2634,48223,TX,Hopkins County
2635,48225,TX,Houston County
2636,48227,TX,Howard County
2637,48229,TX,Hudspeth County
2638,48231,TX,Hunt County
2639,48233,TX,Hutchinson County
2640,48235,TX,Irion County
2641,48237,TX,Jack County
2642,48239,TX,Jackson County
2643,48241,TX,Jasper County
2644,48243,TX,Jeff Davis County
2645,48245,TX,Jefferson County
2646,48247,TX,Jim Hogg County
2647,48249,TX,Jim Wells County
2648,48251,TX,Johnson County
2649,48253,TX,Jones County
2650,48255,TX,Karnes County
2651,48257,TX,Kaufman County
2652,48259,TX,Kendall County
2653,48261,TX,Kenedy County
2654,48263,TX,Kent County
2655,48265,TX,Kerr County
2656,48267,TX,Kimble County
2657,48269,TX,King County
2658,48271,TX,Kinney County
2659,48273,TX,Kleberg County
2660,48275,TX,Knox County
2661,48277,TX,Lamar County
2662,48279,TX,Lamb County
2663,48281,TX,Lampasas County
2664,48283,TX,La Salle County
2665,48285,TX,Lavaca County
2666,48287,TX,Lee County
2667,48289,TX,Leon County
2668,48291,TX,Liberty County
2669,48293,TX,Limestone County
2670,48295,TX,Lipscomb County
2671,48297,TX,Live Oak County
2672,48299,TX,Llano County
2673,48301,TX,Loving County
2674,48303,TX,Lubbock County
2675,48305,TX,Lynn County
2676,48307,TX,McCulloch County
2677,48309,TX,McLennan County
2678,48311,TX,McMullen County
2679,48313,TX,Madison County
2680,48315,TX,Marion County
2681,48317,TX,Martin County
2682,48319,TX,Mason County
2683,48321,TX,Matagorda County
2684,48323,TX,Maverick County
2685,48325,TX,Medina County
2686,48327,TX,Menard County
2687,48329,TX,Midland County
2688,48331,TX,Milam County
2689,48333,TX,Mills County
2690,48335,TX,Mitchell County
2691,48337,TX,Montague County
2692,48339,TX,Montgomery County
2693,48341,TX,Moore County
2694,48343,TX,Morris County
2695,48345,TX,Motley County
2696,48347,TX,Nacogdoches County
2697,48349,TX,Navarro County
2698,48351,TX,Newton County
2699,48353,TX,Nolan County
2700,48355,TX,Nueces County
2701,48357,TX,Ochiltree County
2702,48359,TX,Oldham County
2703,48361,TX,Orange County
2704,48363,TX,Palo Pinto County
2705,48365,TX,Panola County
2706,48367,TX,Parker County
2707,48369,TX,Parmer County
2708,48371,TX,Pecos County
2709,48373,TX,Polk County
2710,48375,TX,Potter County
2711,48377,TX,Presidio County
2712,48379,TX,Rains County
2713,48381,TX,Randall County
2714,48383,TX,Reagan County
2715,48385,TX,Real County
2716,48387,TX,Red River County
2717,48389,TX,Reeves County
2718,48391,TX,Refugio County
2719,48393,TX,Roberts County
2720,48395,TX,Robertson County
2721,48397,TX,Rockwall County
2722,48399,TX,Runnels County
2723,48401,TX,Rusk County
2724,48403,TX,Sabine County
2725,48405,TX,San Augustine County
2726,48407,TX,San Jacinto County
2727,48409,TX,San Patricio County
2728,48411,TX,San Saba County
2729,48413,TX,Schleicher County
2730,48415,TX,Scurry County
2731,48417,TX,Shackelford County
2732,48419,TX,Shelby County
2733,48421,TX,Sherman County
2734,48423,TX,Smith County
2735,48425,TX,Somervell County
2736,48427,TX,Starr County
2737,48429,TX,Stephens County
2738,48431,TX,Sterling County
2739,48433,TX,Stonewall County
2740,48435,TX,Sutton County
2741,48437,TX,Swisher County
2742,48439,TX,Tarrant County
2743,48441,TX,Taylor County
2744,48443,TX,Terrell County
2745,48445,TX,Terry County
2746,48447,TX,Throckmorton County
2747,48449,TX,Titus County
2748,48451,TX,Tom Green County
2749,48453,TX,Travis County
2750,48455,TX,Trinity County
2751,48457,TX,Tyler County
2752,48459,TX,Upshur County
2753,48461,TX,Upton County
2754,48463,TX,Uvalde County
2755,48465,TX,Val Verde County
2756,48467,TX,Van Zandt County
2757,48469,TX,Victoria County
2758,48471,TX,Walker County
2759,48473,TX,Waller County
2760,48475,TX,Ward County
2761,48477,TX,Washington County
2762,48479,TX,Webb County
2763,48481,TX,Wharton County
2764,48483,TX,Wheeler County
2765,48485,TX,Wichita County
2766,48487,TX,Wilbarger County
2767,48489,TX,Willacy County
2768,48491,TX,Williamson County
2769,48493,TX,Wilson County
2770,48495,TX,Winkler County
2771,48497,TX,Wise County
2772,48499,TX,Wood County
2773,48501,TX,Yoakum County
2774,48503,TX,Young County
2775,48505,TX,Zapata County
2776,48507,TX,Zavala County
2777,49001,UT,Beaver County
2778,49003,UT,Box Elder County
2779,49005,UT,Cache County
2780,49007,UT,Carbon County
2781,49009,UT,Daggett County
2782,49011,UT,Davis County
2783,49013,UT,Duchesne County
2784,49015,UT,Emery County
2785,49017,UT,Garfield County
2786,49019,UT,Grand County
2787,49021,UT,Iron County
2788,49023,UT,Juab County
2789,49025,UT,Kane County
2790,49027,UT,Millard County
2791,49029,UT,Morgan County
2792,49031,UT,Piute County
2793,49033,UT,Rich County
2794,49035,UT,Salt Lake County
2795,49037,UT,San Juan County
2796,49039,UT,Sanpete County
2797,49041,UT,Sevier County
2798,49043,UT,Summit County
2799,49045,UT,Tooele County
2800,49047,UT,Uintah County
2801,49049,UT,Utah County
2802,49051,UT,Wasatch County
2803,49053,UT,Washington County
2804,49055,UT,Wayne County
2805,49057,UT,Weber County
2806,50001,VT,Addison County
2807,50003,VT,Bennington County
2808,50005,VT,Caledonia County
2809,50007,VT,Chittenden County
2810,50009,VT,Essex County
2811,50011,VT,Franklin County
2812,50013,VT,Grand Isle County
2813,50015,VT,Lamoille County
2814,50017,VT,Orange County
2815,50019,VT,Orleans County
2816,50021,VT,Rutland County
2817,50023,VT,Washington County
2818,50025,VT,Windham County
2819,50027,VT,Windsor County
2820,51001,VA,Accomack County
2821,51003,VA,Albemarle County
2822,51005,VA,Alleghany County
2823,51007,VA,Amelia County
2824,51009,VA,Amherst County
2825,51011,VA,Appomattox County
2826,51013,VA,Arlington County
2827,51015,VA,Augusta County
2828,51017,VA,Bath County
2829,51019,VA,Bedford County
2830,51021,VA,Bland County
2831,51023,VA,Botetourt County
2832,51025,VA,Brunswick County
2833,51027,VA,Buchanan County
2834,51029,VA,Buckingham County
2835,51031,VA,Campbell County
2836,51033,VA,Caroline County
2837,51035,VA,Carroll County
2838,51036,VA,Charles City County
2839,51037,VA,Charlotte County
2840,51041,VA,Chesterfield County
2841,51043,VA,Clarke County
2842,51045,VA,Craig County
2843,51047,VA,Culpeper County
2844,51049,VA,Cumberland County
2845,51051,VA,Dickenson County
2846,51053,VA,Dinwiddie County
2847,51057,VA,Essex County
2848,51059,VA,Fairfax County
2849,51061,VA,Fauquier County
2850,51063,VA,Floyd County
2851,51065,VA,Fluvanna County
2852,51067,VA,Franklin County
2853,51069,VA,Frederick County
2854,51071,VA,Giles County
2855,51073,VA,Gloucester County
2856,51075,VA,Goochland County
2857,51077,VA,Grayson County
2858,51079,VA,Greene County
2859,51081,VA,Greensville County
2860,51083,VA,Halifax County
2861,51085,VA,Hanover County
2862,51087,VA,Henrico County
2863,51089,VA,Henry County
2864,51091,VA,Highland County
2865,51093,VA,Isle of Wight County
2866,51095,VA,James City County
2867,51097,VA,King and Queen County
2868,51099,VA,King George County
2869,51101,VA,King William County
2870,51103,VA,Lancaster County
2871,51105,VA,Lee County
2872,51107,VA,Loudoun County
2873,51109,VA,Louisa County
2874,51111,VA,Lunenburg County
2875,51113,VA,Madison County
2876,51115,VA,Mathews County
2877,51117,VA,Mecklenburg County
2878,51119,VA,Middlesex County
2879,51121,VA,Montgomery County
2880,51125,VA,Nelson County
2881,51127,VA,New Kent County
2882,51131,VA,Northampton County
2883,51133,VA,Northumberland County
2884,51135,VA,Nottoway County
2885,51137,VA,Orange County
2886,51139,VA,Page County
2887,51141,VA,Patrick County
2888,51143,VA,Pittsylvania County
2889,51145,VA,Powhatan County
2890,51147,VA,Prince Edward County
2891,51149,VA,Prince George County
2892,51153,VA,Prince William County
2893,51155,VA,Pulaski County
2894,51157,VA,Rappahannock County
2895,51159,VA,Richmond County
2896,51161,VA,Roanoke County
2897,51163,VA,Rockbridge County
2898,51165,VA,Rockingham County
2899,51167,VA,Russell County
2900,51169,VA,Scott County
2901,51171,VA,Shenandoah County
2902,51173,VA,Smyth County
2903,51175,VA,Southampton County
2904,51177,VA,Spotsylvania County
2905,51179,VA,Stafford County
2906,51181,VA,Surry County
2907,51183,VA,Sussex County
2908,51185,VA,Tazewell County
2909,51187,VA,Warren County
2910,51191,VA,Washington County
2911,51193,VA,Westmoreland County
2912,51195,VA,Wise County
2913,51197,VA,Wythe County
2914,51199,VA,York County
2915,51510,VA,Alexandria city
2916,51515,VA,Bedford City
2917,51520,VA,Bristol city
2918,51530,VA,Buena Vista city
2919,51540,VA,Charlottesville city
2920,51550,VA,Chesapeake city
2921,51570,VA,Colonial Heights city
2922,51580,VA,Covington city
2923,51590,VA,Danville city
2924,51595,VA,Emporia city
2925,51600,VA,Fairfax city
2926,51610,VA,Falls Church city
2927,51620,VA,Franklin city
2928,51630,VA,Fredericksburg city
2929,51640,VA,Galax city
2930,51650,VA,Hampton city
2931,51660,VA,Harrisonburg city
2932,51670,VA,Hopewell city
2933,51678,VA,Lexington city
2934,51680,VA,Lynchburg city
2935,51683,VA,Manassas city
2936,51685,VA,Manassas Park city
2937,51690,VA,Martinsville city
2938,51700,VA,Newport News city
2939,51710,VA,Norfolk city
2940,51720,VA,Norton city
2941,51730,VA,Petersburg city
2942,51735,VA,Poquoson city
2943,51740,VA,Portsmouth city
2944,51750,VA,Radford city
2945,51760,VA,Richmond city
2946,51770,VA,Roanoke city
2947,51775,VA,Salem city
2948,51790,VA,Staunton city
2949,51800,VA,Suffolk city
2950,51810,VA,Virginia Beach city
2951,51820,VA,Waynesboro city
2952,51830,VA,Williamsburg city
2953,51840,VA,Winchester city
2954,53001,WA,Adams County
2955,53003,WA,Asotin County
2956,53005,WA,Benton County
2957,53007,WA,Chelan County
2958,53009,WA,Clallam County
2959,53011,WA,Clark County
2960,53013,WA,Columbia County
2961,53015,WA,Cowlitz County
2962,53017,WA,Douglas County
2963,53019,WA,Ferry County
2964,53021,WA,Franklin County
2965,53023,WA,Garfield County
2966,53025,WA,Grant County
2967,53027,WA,Grays Harbor County
2968,53029,WA,Island County
2969,53031,WA,Jefferson County
2970,53033,WA,King County
2971,53035,WA,Kitsap County
2972,53037,WA,Kittitas County
2973,53039,WA,Klickitat County
2974,53041,WA,Lewis County
2975,53043,WA,Lincoln County
2976,53045,WA,Mason County
2977,53047,WA,Okanogan County
2978,53049,WA,Pacific County
2979,53051,WA,Pend Oreille County
2980,53053,WA,Pierce County
2981,53055,WA,San Juan County
2982,53057,WA,Skagit County
2983,53059,WA,Skamania County
2984,53061,WA,Snohomish County
2985,53063,WA,Spokane County
2986,53065,WA,Stevens County
2987,53067,WA,Thurston County
2988,53069,WA,Wahkiakum County
2989,53071,WA,Walla Walla County
2990,53073,WA,Whatcom County
2991,53075,WA,Whitman County
2992,53077,WA,Yakima County
2993,54001,WV,Barbour County
2994,54003,WV,Berkeley County
2995,54005,WV,Boone County
2996,54007,WV,Braxton County
2997,54009,WV,Brooke County
2998,54011,WV,Cabell County
2999,54013,WV,Calhoun County
3000,54015,WV,Clay County
3001,54017,WV,Doddridge County
3002,54019,WV,Fayette County
3003,54021,WV,Gilmer County
3004,54023,WV,Grant County
3005,54025,WV,Greenbrier County
3006,54027,WV,Hampshire County
3007,54029,WV,Hancock County
3008,54031,WV,Hardy County
3009,54033,WV,Harrison County
3010,54035,WV,Jackson County
3011,54037,WV,Jefferson County
3012,54039,WV,Kanawha County
3013,54041,WV,Lewis County
3014,54043,WV,Lincoln County
3015,54045,WV,Logan County
3016,54047,WV,McDowell County
3017,54049,WV,Marion County
3018,54051,WV,Marshall County
3019,54053,WV,Mason County
3020,54055,WV,Mercer County
3021,54057,WV,Mineral County
3022,54059,WV,Mingo County
3023,54061,WV,Monongalia County
3024,54063,WV,Monroe County
3025,54065,WV,Morgan County
3026,54067,WV,Nicholas County
3027,54069,WV,Ohio County
3028,54071,WV,Pendleton County
3029,54073,WV,Pleasants County
3030,54075,WV,Pocahontas County
3031,54077,WV,Preston County
3032,54079,WV,Putnam County
3033,54081,WV,Raleigh County
3034,54083,WV,Randolph County
3035,54085,WV,Ritchie County
3036,54087,WV,Roane County
3037,54089,WV,Summers County
3038,54091,WV,Taylor County
3039,54093,WV,Tucker County
3040,54095,WV,Tyler County
3041,54097,WV,Upshur County
3042,54099,WV,Wayne County
3043,54101,WV,Webster County
3044,54103,WV,Wetzel County
3045,54105,WV,Wirt County
3046,54107,WV,Wood County
3047,54109,WV,Wyoming County
3048,55001,WI,Adams County
3049,55003,WI,Ashland County
3050,55005,WI,Barron County
3051,55007,WI,Bayfield County
3052,55009,WI,Brown County
3053,55011,WI,Buffalo County
3054,55013,WI,Burnett County
3055,55015,WI,Calumet County
3056,55017,WI,Chippewa County
3057,55019,WI,Clark County
3058,55021,WI,Columbia County
3059,55023,WI,Crawford County
3060,55025,WI,Dane County
3061,55027,WI,Dodge County
3062,55029,WI,Door County
3063,55031,WI,Douglas County
3064,55033,WI,Dunn County
3065,55035,WI,Eau Claire County
3066,55037,WI,Florence County
3067,55039,WI,Fond du Lac County
3068,55041,WI,Forest County
3069,55043,WI,Grant County
3070,55045,WI,Green County
3071,55047,WI,Green Lake County
3072,55049,WI,Iowa County
3073,55051,WI,Iron County
3074,55053,WI,Jackson County
3075,55055,WI,Jefferson County
3076,55057,WI,Juneau County
3077,55059,WI,Kenosha County
3078,55061,WI,Kewaunee County
3079,55063,WI,La Crosse County
3080,55065,WI,Lafayette County
3081,55067,WI,Langlade County
3082,55069,WI,Lincoln County
3083,55071,WI,Manitowoc County
3084,55073,WI,Marathon County
3085,55075,WI,Marinette County
3086,55077,WI,Marquette County
3087,55078,WI,Menominee County
3088,55079,WI,Milwaukee County
3089,55081,WI,Monroe County
3090,55083,WI,Oconto County
3091,55085,WI,Oneida County
3092,55087,WI,Outagamie County
3093,55089,WI,Ozaukee County
3094,55091,WI,Pepin County
3095,55093,WI,Pierce County
3096,55095,WI,Polk County
3097,55097,WI,Portage County
3098,55099,WI,Price County
3099,55101,WI,Racine County
3100,55103,WI,Richland County
3101,55105,WI,Rock County
3102,55107,WI,Rusk County
3103,55109,WI,St. Croix County
3104,55111,WI,Sauk County
3105,55113,WI,Sawyer County
3106,55115,WI,Shawano County
3107,55117,WI,Sheboygan County
3108,55119,WI,Taylor County
3109,55121,WI,Trempealeau County
3110,55123,WI,Vernon County
3111,55125,WI,Vilas County
3112,55127,WI,Walworth County
3113,55129,WI,Washburn County
3114,55131,WI,Washington County
3115,55133,WI,Waukesha County
3116,55135,WI,Waupaca County
3117,55137,WI,Waushara County
3118,55139,WI,Winnebago County
3119,55141,WI,Wood County
3120,56001,WY,Albany County
3121,56003,WY,Big Horn County
3122,56005,WY,Campbell County
3123,56007,WY,Carbon County
3124,56009,WY,Converse County
3125,56011,WY,Crook County
3126,56013,WY,Fremont County
3127,56015,WY,Goshen County
3128,56017,WY,Hot Springs County
3129,56019,WY,Johnson County
3130,56021,WY,Laramie County
3131,56023,WY,Lincoln County
3132,56025,WY,Natrona County
3133,56027,WY,Niobrara County
3134,56029,WY,Park County
3135,56031,WY,Platte County
3136,56033,WY,Sheridan County
3137,56035,WY,Sublette County
3138,56037,WY,Sweetwater County
3139,56039,WY,Teton County
3140,56041,WY,Uinta County
3141,56043,WY,Washakie County
3142,56045,WY,Weston County
